# Created at 2022-09-20T18:13:24.679
Exiting self fork JVM. Received SHUTDOWN command from Maven shutdown hook.
Thread dump before exiting the process (1416@DESKTOP-T9D7C23):
"main" 
   java.lang.Thread.State: TIMED_WAITING
        at java.base@11.0.12/java.lang.Thread.sleep(Native Method)
        at app//org.openqa.selenium.support.ui.Sleeper.lambda$static$0(Sleeper.java:27)
        at app//org.openqa.selenium.support.ui.Sleeper$$Lambda$444/0x0000000100479440.sleep(Unknown Source)
        at app//org.openqa.selenium.support.ui.FluentWait.until(FluentWait.java:235)
        at app//com.telerikacademy.testframework.UserActions.waitForElementToBeClickableUntilTimeout(UserActions.java:170)
        at app//com.telerikacademy.testframework.UserActions.waitForElementClickable(UserActions.java:65)
        at app//com.telerikacademy.testframework.pages.LoginPage.loadLoginPage(LoginPage.java:13)
        at app//test.cases._005_CommentTests.loginUser(_005_CommentTests.java:21)
        at java.base@11.0.12/jdk.internal.reflect.NativeMethodAccessorImpl.invoke0(Native Method)
        at java.base@11.0.12/jdk.internal.reflect.NativeMethodAccessorImpl.invoke(NativeMethodAccessorImpl.java:62)
        at java.base@11.0.12/jdk.internal.reflect.DelegatingMethodAccessorImpl.invoke(DelegatingMethodAccessorImpl.java:43)
        at java.base@11.0.12/java.lang.reflect.Method.invoke(Method.java:566)
        at app//org.junit.runners.model.FrameworkMethod$1.runReflectiveCall(FrameworkMethod.java:59)
        at app//org.junit.internal.runners.model.ReflectiveCallable.run(ReflectiveCallable.java:12)
        at app//org.junit.runners.model.FrameworkMethod.invokeExplosively(FrameworkMethod.java:56)
        at app//org.junit.internal.runners.statements.RunBefores.invokeMethod(RunBefores.java:33)
        at app//org.junit.internal.runners.statements.RunBefores.evaluate(RunBefores.java:24)
        at app//org.junit.internal.runners.statements.RunAfters.evaluate(RunAfters.java:27)
        at app//org.junit.runners.ParentRunner$3.evaluate(ParentRunner.java:306)
        at app//org.junit.runners.BlockJUnit4ClassRunner$1.evaluate(BlockJUnit4ClassRunner.java:100)
        at app//org.junit.runners.ParentRunner.runLeaf(ParentRunner.java:366)
        at app//org.junit.runners.BlockJUnit4ClassRunner.runChild(BlockJUnit4ClassRunner.java:103)
        at app//org.junit.runners.BlockJUnit4ClassRunner.runChild(BlockJUnit4ClassRunner.java:63)
        at app//org.junit.runners.ParentRunner$4.run(ParentRunner.java:331)
        at app//org.junit.runners.ParentRunner$1.schedule(ParentRunner.java:79)
        at app//org.junit.runners.ParentRunner.runChildren(ParentRunner.java:329)
        at app//org.junit.runners.ParentRunner.access$100(ParentRunner.java:66)
        at app//org.junit.runners.ParentRunner$2.evaluate(ParentRunner.java:293)
        at app//org.junit.internal.runners.statements.RunBefores.evaluate(RunBefores.java:26)
        at app//org.junit.internal.runners.statements.RunAfters.evaluate(RunAfters.java:27)
        at app//org.junit.runners.ParentRunner$3.evaluate(ParentRunner.java:306)
        at app//org.junit.runners.ParentRunner.run(ParentRunner.java:413)
        at app//org.apache.maven.surefire.junit4.JUnit4Provider.execute(JUnit4Provider.java:377)
        at app//org.apache.maven.surefire.junit4.JUnit4Provider.executeWithRerun(JUnit4Provider.java:284)
        at app//org.apache.maven.surefire.junit4.JUnit4Provider.executeTestSet(JUnit4Provider.java:248)
        at app//org.apache.maven.surefire.junit4.JUnit4Provider.invoke(JUnit4Provider.java:167)
        at app//org.apache.maven.surefire.booter.ForkedBooter.runSuitesInProcess(ForkedBooter.java:456)
        at app//org.apache.maven.surefire.booter.ForkedBooter.execute(ForkedBooter.java:169)
        at app//org.apache.maven.surefire.booter.ForkedBooter.run(ForkedBooter.java:595)
        at app//org.apache.maven.surefire.booter.ForkedBooter.main(ForkedBooter.java:581)

"Reference Handler" 
   java.lang.Thread.State: RUNNABLE
        at java.base@11.0.12/java.lang.ref.Reference.waitForReferencePendingList(Native Method)
        at java.base@11.0.12/java.lang.ref.Reference.processPendingReferences(Reference.java:241)
        at java.base@11.0.12/java.lang.ref.Reference$ReferenceHandler.run(Reference.java:213)

"Finalizer" 
   java.lang.Thread.State: WAITING
        at java.base@11.0.12/java.lang.Object.wait(Native Method)
        at java.base@11.0.12/java.lang.ref.ReferenceQueue.remove(ReferenceQueue.java:155)
        at java.base@11.0.12/java.lang.ref.ReferenceQueue.remove(ReferenceQueue.java:176)
        at java.base@11.0.12/java.lang.ref.Finalizer$FinalizerThread.run(Finalizer.java:170)

"Signal Dispatcher" 
   java.lang.Thread.State: RUNNABLE

"Attach Listener" 
   java.lang.Thread.State: RUNNABLE

"Common-Cleaner" 
   java.lang.Thread.State: TIMED_WAITING
        at java.base@11.0.12/java.lang.Object.wait(Native Method)
        at java.base@11.0.12/java.lang.ref.ReferenceQueue.remove(ReferenceQueue.java:155)
        at java.base@11.0.12/jdk.internal.ref.CleanerImpl.run(CleanerImpl.java:148)
        at java.base@11.0.12/java.lang.Thread.run(Thread.java:834)
        at java.base@11.0.12/jdk.internal.misc.InnocuousThread.run(InnocuousThread.java:134)

"surefire-forkedjvm-stream-flusher" 
   java.lang.Thread.State: TIMED_WAITING
        at java.base@11.0.12/jdk.internal.misc.Unsafe.park(Native Method)
        at java.base@11.0.12/java.util.concurrent.locks.LockSupport.parkNanos(LockSupport.java:234)
        at java.base@11.0.12/java.util.concurrent.locks.AbstractQueuedSynchronizer$ConditionObject.awaitNanos(AbstractQueuedSynchronizer.java:2123)
        at java.base@11.0.12/java.util.concurrent.ScheduledThreadPoolExecutor$DelayedWorkQueue.take(ScheduledThreadPoolExecutor.java:1182)
        at java.base@11.0.12/java.util.concurrent.ScheduledThreadPoolExecutor$DelayedWorkQueue.take(ScheduledThreadPoolExecutor.java:899)
        at java.base@11.0.12/java.util.concurrent.ThreadPoolExecutor.getTask(ThreadPoolExecutor.java:1054)
        at java.base@11.0.12/java.util.concurrent.ThreadPoolExecutor.runWorker(ThreadPoolExecutor.java:1114)
        at java.base@11.0.12/java.util.concurrent.ThreadPoolExecutor$Worker.run(ThreadPoolExecutor.java:628)
        at java.base@11.0.12/java.lang.Thread.run(Thread.java:834)

"surefire-forkedjvm-command-thread" 
   java.lang.Thread.State: RUNNABLE
        at java.management@11.0.12/sun.management.ThreadImpl.getThreadInfo1(Native Method)
        at java.management@11.0.12/sun.management.ThreadImpl.getThreadInfo(ThreadImpl.java:197)
        at app//org.apache.maven.surefire.booter.ForkedBooter.generateThreadDump(ForkedBooter.java:683)
        at app//org.apache.maven.surefire.booter.ForkedBooter.access$600(ForkedBooter.java:80)
        at app//org.apache.maven.surefire.booter.ForkedBooter$4.update(ForkedBooter.java:368)
        at app//org.apache.maven.surefire.booter.CommandReader$CommandRunnable.callListeners(CommandReader.java:426)
        at app//org.apache.maven.surefire.booter.CommandReader$CommandRunnable.exitByConfiguration(CommandReader.java:438)
        at app//org.apache.maven.surefire.booter.CommandReader$CommandRunnable.run(CommandReader.java:390)
        at java.base@11.0.12/java.lang.Thread.run(Thread.java:834)

"ForkJoinPool.commonPool-worker-3" 
   java.lang.Thread.State: WAITING
        at java.base@11.0.12/jdk.internal.misc.Unsafe.park(Native Method)
        at java.base@11.0.12/java.util.concurrent.locks.LockSupport.park(LockSupport.java:194)
        at java.base@11.0.12/java.util.concurrent.ForkJoinPool.runWorker(ForkJoinPool.java:1628)
        at java.base@11.0.12/java.util.concurrent.ForkJoinWorkerThread.run(ForkJoinWorkerThread.java:183)

"AsyncHttpClient-1-1" 
   java.lang.Thread.State: TIMED_WAITING
        at java.base@11.0.12/java.lang.Thread.sleep(Native Method)
        at app//io.netty.util.HashedWheelTimer$Worker.waitForNextTick(HashedWheelTimer.java:600)
        at app//io.netty.util.HashedWheelTimer$Worker.run(HashedWheelTimer.java:496)
        at app//io.netty.util.concurrent.FastThreadLocalRunnable.run(FastThreadLocalRunnable.java:30)
        at java.base@11.0.12/java.lang.Thread.run(Thread.java:834)

"Exec Default Executor" 
   java.lang.Thread.State: RUNNABLE
        at java.base@11.0.12/java.lang.ProcessImpl.waitForInterruptibly(Native Method)
        at java.base@11.0.12/java.lang.ProcessImpl.waitFor(ProcessImpl.java:554)
        at app//org.apache.commons.exec.DefaultExecutor.executeInternal(DefaultExecutor.java:364)
        at app//org.apache.commons.exec.DefaultExecutor.access$200(DefaultExecutor.java:48)
        at app//org.apache.commons.exec.DefaultExecutor$1.run(DefaultExecutor.java:200)
        at java.base@11.0.12/java.lang.Thread.run(Thread.java:834)

"Driver Service Executor" 
   java.lang.Thread.State: WAITING
        at java.base@11.0.12/jdk.internal.misc.Unsafe.park(Native Method)
        at java.base@11.0.12/java.util.concurrent.locks.LockSupport.park(LockSupport.java:194)
        at java.base@11.0.12/java.util.concurrent.locks.AbstractQueuedSynchronizer$ConditionObject.await(AbstractQueuedSynchronizer.java:2081)
        at java.base@11.0.12/java.util.concurrent.LinkedBlockingQueue.take(LinkedBlockingQueue.java:433)
        at java.base@11.0.12/java.util.concurrent.ThreadPoolExecutor.getTask(ThreadPoolExecutor.java:1054)
        at java.base@11.0.12/java.util.concurrent.ThreadPoolExecutor.runWorker(ThreadPoolExecutor.java:1114)
        at java.base@11.0.12/java.util.concurrent.ThreadPoolExecutor$Worker.run(ThreadPoolExecutor.java:628)
        at java.base@11.0.12/java.lang.Thread.run(Thread.java:834)

"Driver Service Executor" 
   java.lang.Thread.State: TIMED_WAITING
        at java.base@11.0.12/java.lang.Thread.sleep(Native Method)
        at app//org.openqa.selenium.os.OsProcess.waitFor(OsProcess.java:170)
        at app//org.openqa.selenium.os.CommandLine.waitFor(CommandLine.java:114)
        at app//org.openqa.selenium.remote.service.DriverService.lambda$start$2(DriverService.java:211)
        at app//org.openqa.selenium.remote.service.DriverService$$Lambda$261/0x00000001003a2840.get(Unknown Source)
        at java.base@11.0.12/java.util.concurrent.CompletableFuture$AsyncSupply.run(CompletableFuture.java:1700)
        at java.base@11.0.12/java.util.concurrent.ThreadPoolExecutor.runWorker(ThreadPoolExecutor.java:1128)
        at java.base@11.0.12/java.util.concurrent.ThreadPoolExecutor$Worker.run(ThreadPoolExecutor.java:628)
        at java.base@11.0.12/java.lang.Thread.run(Thread.java:834)

"UrlChecker-2" 
   java.lang.Thread.State: TIMED_WAITING
        at java.base@11.0.12/jdk.internal.misc.Unsafe.park(Native Method)
        at java.base@11.0.12/java.util.concurrent.locks.LockSupport.parkNanos(LockSupport.java:234)
        at java.base@11.0.12/java.util.concurrent.SynchronousQueue$TransferStack.awaitFulfill(SynchronousQueue.java:462)
        at java.base@11.0.12/java.util.concurrent.SynchronousQueue$TransferStack.transfer(SynchronousQueue.java:361)
        at java.base@11.0.12/java.util.concurrent.SynchronousQueue.poll(SynchronousQueue.java:937)
        at java.base@11.0.12/java.util.concurrent.ThreadPoolExecutor.getTask(ThreadPoolExecutor.java:1053)
        at java.base@11.0.12/java.util.concurrent.ThreadPoolExecutor.runWorker(ThreadPoolExecutor.java:1114)
        at java.base@11.0.12/java.util.concurrent.ThreadPoolExecutor$Worker.run(ThreadPoolExecutor.java:628)
        at java.base@11.0.12/java.lang.Thread.run(Thread.java:834)

"Exec Stream Pumper" 
   java.lang.Thread.State: RUNNABLE
        at java.base@11.0.12/java.io.FileInputStream.readBytes(Native Method)
        at java.base@11.0.12/java.io.FileInputStream.read(FileInputStream.java:279)
        at java.base@11.0.12/java.io.BufferedInputStream.fill(BufferedInputStream.java:252)
        at java.base@11.0.12/java.io.BufferedInputStream.read1(BufferedInputStream.java:292)
        at java.base@11.0.12/java.io.BufferedInputStream.read(BufferedInputStream.java:351)
        at java.base@11.0.12/java.io.FilterInputStream.read(FilterInputStream.java:107)
        at app//org.apache.commons.exec.StreamPumper.run(StreamPumper.java:107)
        at java.base@11.0.12/java.lang.Thread.run(Thread.java:834)

"Exec Stream Pumper" 
   java.lang.Thread.State: RUNNABLE
        at java.base@11.0.12/java.io.FileInputStream.readBytes(Native Method)
        at java.base@11.0.12/java.io.FileInputStream.read(FileInputStream.java:257)
        at app//org.apache.commons.exec.StreamPumper.run(StreamPumper.java:107)
        at java.base@11.0.12/java.lang.Thread.run(Thread.java:834)

"AsyncHttpClient-1-2" 
   java.lang.Thread.State: RUNNABLE
        at java.base@11.0.12/sun.nio.ch.WindowsSelectorImpl$SubSelector.poll0(Native Method)
        at java.base@11.0.12/sun.nio.ch.WindowsSelectorImpl$SubSelector.poll(WindowsSelectorImpl.java:357)
        at java.base@11.0.12/sun.nio.ch.WindowsSelectorImpl.doSelect(WindowsSelectorImpl.java:182)
        at java.base@11.0.12/sun.nio.ch.SelectorImpl.lockAndDoSelect(SelectorImpl.java:124)
        at java.base@11.0.12/sun.nio.ch.SelectorImpl.select(SelectorImpl.java:141)
        at app//io.netty.channel.nio.SelectedSelectionKeySetSelector.select(SelectedSelectionKeySetSelector.java:68)
        at app//io.netty.channel.nio.NioEventLoop.select(NioEventLoop.java:813)
        at app//io.netty.channel.nio.NioEventLoop.run(NioEventLoop.java:460)
        at app//io.netty.util.concurrent.SingleThreadEventExecutor$4.run(SingleThreadEventExecutor.java:997)
        at app//io.netty.util.internal.ThreadExecutorMap$2.run(ThreadExecutorMap.java:74)
        at app//io.netty.util.concurrent.FastThreadLocalRunnable.run(FastThreadLocalRunnable.java:30)
        at java.base@11.0.12/java.lang.Thread.run(Thread.java:834)

"AsyncHttpClient-1-3" 
   java.lang.Thread.State: RUNNABLE
        at java.base@11.0.12/sun.nio.ch.WindowsSelectorImpl$SubSelector.poll0(Native Method)
        at java.base@11.0.12/sun.nio.ch.WindowsSelectorImpl$SubSelector.poll(WindowsSelectorImpl.java:357)
        at java.base@11.0.12/sun.nio.ch.WindowsSelectorImpl.doSelect(WindowsSelectorImpl.java:182)
        at java.base@11.0.12/sun.nio.ch.SelectorImpl.lockAndDoSelect(SelectorImpl.java:124)
        at java.base@11.0.12/sun.nio.ch.SelectorImpl.select(SelectorImpl.java:141)
        at app//io.netty.channel.nio.SelectedSelectionKeySetSelector.select(SelectedSelectionKeySetSelector.java:68)
        at app//io.netty.channel.nio.NioEventLoop.select(NioEventLoop.java:813)
        at app//io.netty.channel.nio.NioEventLoop.run(NioEventLoop.java:460)
        at app//io.netty.util.concurrent.SingleThreadEventExecutor$4.run(SingleThreadEventExecutor.java:997)
        at app//io.netty.util.internal.ThreadExecutorMap$2.run(ThreadExecutorMap.java:74)
        at app//io.netty.util.concurrent.FastThreadLocalRunnable.run(FastThreadLocalRunnable.java:30)
        at java.base@11.0.12/java.lang.Thread.run(Thread.java:834)

"AsyncHttpClient-1-4" 
   java.lang.Thread.State: RUNNABLE
        at java.base@11.0.12/sun.nio.ch.WindowsSelectorImpl$SubSelector.poll0(Native Method)
        at java.base@11.0.12/sun.nio.ch.WindowsSelectorImpl$SubSelector.poll(WindowsSelectorImpl.java:357)
        at java.base@11.0.12/sun.nio.ch.WindowsSelectorImpl.doSelect(WindowsSelectorImpl.java:182)
        at java.base@11.0.12/sun.nio.ch.SelectorImpl.lockAndDoSelect(SelectorImpl.java:124)
        at java.base@11.0.12/sun.nio.ch.SelectorImpl.select(SelectorImpl.java:141)
        at app//io.netty.channel.nio.SelectedSelectionKeySetSelector.select(SelectedSelectionKeySetSelector.java:68)
        at app//io.netty.channel.nio.NioEventLoop.select(NioEventLoop.java:813)
        at app//io.netty.channel.nio.NioEventLoop.run(NioEventLoop.java:460)
        at app//io.netty.util.concurrent.SingleThreadEventExecutor$4.run(SingleThreadEventExecutor.java:997)
        at app//io.netty.util.internal.ThreadExecutorMap$2.run(ThreadExecutorMap.java:74)
        at app//io.netty.util.concurrent.FastThreadLocalRunnable.run(FastThreadLocalRunnable.java:30)
        at java.base@11.0.12/java.lang.Thread.run(Thread.java:834)



