{
	"info": {
		"_postman_id": "935e9849-b122-49e6-a888-d96169139ee1",
		"name": "WEare API tests",
		"schema": "https://schema.getpostman.com/json/collection/v2.1.0/collection.json",
		"_exporter_id": "21651605"
	},
	"item": [
		{
			"name": "Private Part",
			"item": [
				{
					"name": "Private Part - Register",
					"item": [
						{
							"name": "Get all users",
							"event": [
								{
									"listen": "test",
									"script": {
										"exec": [
											"pm.test(\"Status code is 200\", function () {\r",
											"    pm.response.to.have.status(200);\r",
											"});\r",
											"\r",
											"pm.test(\"Validate username attribute is not empty\", function(){\r",
											"    var jsonData = pm.response.json();\r",
											"    pm.expect(jsonData[0].username,\"Invalid response. Username is empty\").not.to.equal(null);\r",
											"});"
										],
										"type": "text/javascript"
									}
								}
							],
							"request": {
								"method": "POST",
								"header": [],
								"body": {
									"mode": "raw",
									"raw": "{\r\n  \"index\": 0,\r\n  \"next\": true,\r\n  \"searchParam1\":\"\",\r\n  \"searchParam2\":\"\",\r\n  \"size\": 50\r\n}",
									"options": {
										"raw": {
											"language": "json"
										}
									}
								},
								"url": {
									"raw": "{{BaseUrl}}/api/users",
									"host": [
										"{{BaseUrl}}"
									],
									"path": [
										"api",
										"users"
									]
								}
							},
							"response": []
						},
						{
							"name": "Register user",
							"event": [
								{
									"listen": "prerequest",
									"script": {
										"exec": [
											"var emailAddress = pm.variables.replaceIn('{{$randomEmail}}');\r",
											"pm.environment.set(\"userEmail\",emailAddress);\r",
											"\r",
											"var username = pm.variables.replaceIn('{{$randomFirstName}}{{$randomLastName}}');\r",
											"pm.environment.set(\"userName\",username);\r",
											"\r",
											"var pass = pm.variables.replaceIn('{{$randomPassword}}');\r",
											"pm.environment.set(\"userPassword\",pass);\r",
											"\r",
											"let randomCategory = Math.floor(Math.random() * (157 - 101 + 1)) + 101;\r",
											"pm.environment.set(\"CategoryId\", pm.variables.replaceIn(randomCategory));"
										],
										"type": "text/javascript"
									}
								},
								{
									"listen": "test",
									"script": {
										"exec": [
											"pm.test(\"Status code is 200\", function () {\r",
											"    pm.response.to.have.status(200);\r",
											"});\r",
											"\r",
											"pm.test(\"Validate user is created\",function(){\r",
											"    pm.expect(pm.response.text()).to.include(pm.variables.get('userName'));\r",
											"});"
										],
										"type": "text/javascript"
									}
								}
							],
							"request": {
								"method": "POST",
								"header": [],
								"body": {
									"mode": "raw",
									"raw": "{\r\n      \"category\": {\r\n    \"id\": {{CategoryId}}\r\n  },\r\n  \"confirmPassword\": \"{{userPassword}}\",\r\n  \"email\": \"{{userEmail}}\",\r\n  \"password\": \"{{userPassword}}\",\r\n  \"username\": \"{{userName}}\"\r\n}",
									"options": {
										"raw": {
											"language": "json"
										}
									}
								},
								"url": {
									"raw": "{{BaseUrl}}/api/users/",
									"host": [
										"{{BaseUrl}}"
									],
									"path": [
										"api",
										"users",
										""
									]
								}
							},
							"response": []
						},
						{
							"name": "Get registered user",
							"event": [
								{
									"listen": "test",
									"script": {
										"exec": [
											"var jsonRes = pm.response.json();\r",
											"\r",
											"pm.environment.set(\"userID\", jsonRes[0].userId);\r",
											"pm.environment.set(\"CategoryName\", jsonRes[0].expertiseProfile.category.name);\r",
											"\r",
											"pm.test(\"Status code is 200\", function () {\r",
											"    pm.response.to.have.status(200);\r",
											"});\r",
											"\r",
											"pm.test(\"Latest registered user should have userId ,username ,expertise, enabled\",function(){\r",
											"    pm.expect(jsonRes[0]).to.have.property(\"userId\");\r",
											"    pm.expect(jsonRes[0]).to.have.property(\"username\");\r",
											"    pm.expect(jsonRes[0]).to.have.property(\"expertiseProfile\");\r",
											"    pm.expect(jsonRes[0]).to.have.property(\"enabled\");\r",
											"});\r",
											"\r",
											"pm.test(\"Validate user ID is not empty\", function(){\r",
											"    pm.expect(jsonRes[0].userId).to.not.be.null;\r",
											"});\r",
											"\r",
											"pm.test(\"Validate username of last registered user is matching with the request\",function(){\r",
											"    pm.expect(jsonRes[0].username).to.eql(pm.environment.get(\"userName\"));\r",
											"});\r",
											"\r",
											"pm.test(\"Validate latest registered user is enabled\",function(){\r",
											"    pm.expect(jsonRes[0].enabled).to.be.true;\r",
											"});\r",
											"\r",
											""
										],
										"type": "text/javascript"
									}
								}
							],
							"request": {
								"method": "POST",
								"header": [],
								"body": {
									"mode": "raw",
									"raw": "{\r\n  \"index\": 0,\r\n  \"next\": true,\r\n  \"searchParam1\":\"\",\r\n  \"searchParam2\":\"\",\r\n  \"size\": 10\r\n}",
									"options": {
										"raw": {
											"language": "json"
										}
									}
								},
								"url": {
									"raw": "{{BaseUrl}}/api/users",
									"host": [
										"{{BaseUrl}}"
									],
									"path": [
										"api",
										"users"
									]
								}
							},
							"response": []
						},
						{
							"name": "Register second user",
							"event": [
								{
									"listen": "prerequest",
									"script": {
										"exec": [
											"var secondEmailAddress = pm.variables.replaceIn('{{$randomEmail}}');\r",
											"pm.environment.set(\"secondUserEmail\",secondEmailAddress);\r",
											"\r",
											"var secondUsername = pm.variables.replaceIn('{{$randomFirstName}}{{$randomLastName}}');\r",
											"pm.environment.set(\"secondUserName\",secondUsername);\r",
											"\r",
											"var secondPass = pm.variables.replaceIn('{{$randomPassword}}');\r",
											"pm.environment.set(\"secondUserPassword\",secondPass);\r",
											"\r",
											"let randomCategory = Math.floor(Math.random() * (157 - 101 + 1)) + 101;\r",
											"pm.environment.set(\"CategoryIdSecondUser\", pm.variables.replaceIn(randomCategory));"
										],
										"type": "text/javascript"
									}
								},
								{
									"listen": "test",
									"script": {
										"exec": [
											"pm.test(\"Status code is 200\", function () {\r",
											"    pm.response.to.have.status(200);\r",
											"});\r",
											"\r",
											"pm.test(\"Validate user is created\",function(){\r",
											"    pm.expect(pm.response.text()).to.include(pm.variables.get('secondUserName'));\r",
											"});"
										],
										"type": "text/javascript"
									}
								}
							],
							"request": {
								"method": "POST",
								"header": [],
								"body": {
									"mode": "raw",
									"raw": "{\r\n      \"category\": {\r\n    \"id\": {{CategoryIdSecondUser}}\r\n  },\r\n  \"confirmPassword\": \"{{secondUserPassword}}\",\r\n  \"email\": \"{{secondUserEmail}}\",\r\n  \"password\": \"{{secondUserPassword}}\",\r\n  \"username\": \"{{secondUserName}}\"\r\n}",
									"options": {
										"raw": {
											"language": "json"
										}
									}
								},
								"url": {
									"raw": "{{BaseUrl}}/api/users/",
									"host": [
										"{{BaseUrl}}"
									],
									"path": [
										"api",
										"users",
										""
									]
								}
							},
							"response": []
						},
						{
							"name": "Get second registered user",
							"event": [
								{
									"listen": "test",
									"script": {
										"exec": [
											"var jsonRes = pm.response.json();\r",
											"\r",
											"pm.environment.set(\"secondUserID\", jsonRes[0].userId);\r",
											"\r",
											"pm.test(\"Status code is 200\", function () {\r",
											"    pm.response.to.have.status(200);\r",
											"});\r",
											"\r",
											"pm.test(\"Latest registered user should have userId ,username ,expertise, enabled\",function(){\r",
											"    pm.expect(jsonRes[0]).to.have.property(\"userId\");\r",
											"    pm.expect(jsonRes[0]).to.have.property(\"username\");\r",
											"    pm.expect(jsonRes[0]).to.have.property(\"expertiseProfile\");\r",
											"    pm.expect(jsonRes[0]).to.have.property(\"enabled\");\r",
											"});\r",
											"\r",
											"pm.test(\"Validate user ID is not empty\", function(){\r",
											"    pm.expect(jsonRes[0].userId).to.not.be.null;\r",
											"});\r",
											"\r",
											"pm.test(\"Validate username of last registered user is matching with the request\",function(){\r",
											"    pm.expect(jsonRes[0].username).to.eql(pm.environment.get(\"secondUserName\"));\r",
											"});\r",
											"\r",
											"pm.test(\"Validate latest registered user is enabled\",function(){\r",
											"    pm.expect(jsonRes[0].enabled).to.be.true;\r",
											"});\r",
											"\r",
											""
										],
										"type": "text/javascript"
									}
								}
							],
							"request": {
								"method": "POST",
								"header": [],
								"body": {
									"mode": "raw",
									"raw": "{\r\n  \"index\": 0,\r\n  \"next\": true,\r\n  \"searchParam1\":\"\",\r\n  \"searchParam2\":\"\",\r\n  \"size\": 10\r\n}",
									"options": {
										"raw": {
											"language": "json"
										}
									}
								},
								"url": {
									"raw": "{{BaseUrl}}/api/users",
									"host": [
										"{{BaseUrl}}"
									],
									"path": [
										"api",
										"users"
									]
								}
							},
							"response": []
						},
						{
							"name": "Login user",
							"event": [
								{
									"listen": "test",
									"script": {
										"exec": [
											"pm.test(\"Status code is 200\", function () {\r",
											"    pm.response.to.have.status(200);\r",
											"});\r",
											"\r",
											"pm.collectionVariables.set(\"login_cookie\", pm.cookies.get('JSESSIONID'));\r",
											"console.log(pm.cookies.get('JSESSIONID'));\r",
											"\r",
											"pm.test(\"Validate HTML response values after login\",function(){\r",
											"const $ = cheerio.load(pm.response.text());\r",
											"link = $('a');\r",
											"pm.expect($(link).attr('href').includes('LOGOUT')).not.to.be.null;\r",
											"});\r",
											"\r",
											"pm.test(\"The username and password are correct\", function () {\r",
											"   pm.expect(pm.response.text()).not.to.include(\"Wrong username or password.\");\r",
											"});"
										],
										"type": "text/javascript"
									}
								}
							],
							"request": {
								"method": "POST",
								"header": [],
								"body": {
									"mode": "formdata",
									"formdata": [
										{
											"key": "username",
											"value": "{{userName}}",
											"type": "text"
										},
										{
											"key": "password",
											"value": "{{userPassword}}",
											"type": "text"
										}
									]
								},
								"url": {
									"raw": "{{BaseUrl}}/authenticate",
									"host": [
										"{{BaseUrl}}"
									],
									"path": [
										"authenticate"
									]
								}
							},
							"response": []
						},
						{
							"name": "Logout user",
							"event": [
								{
									"listen": "test",
									"script": {
										"exec": [
											"pm.test(\"Status code is 200\", function () {\r",
											"    pm.response.to.have.status(200);\r",
											"});\r",
											"\r",
											"pm.test(\"Validate HTML response values after logout\",function(){\r",
											"const $ = cheerio.load(pm.response.text());\r",
											"link = $('a');\r",
											"pm.expect($(link).attr('href').includes('Sign In')).not.to.be.null;\r",
											"pm.expect($(link).attr('href').includes('Create Account')).not.to.be.null;\r",
											"});"
										],
										"type": "text/javascript"
									}
								}
							],
							"request": {
								"method": "GET",
								"header": [],
								"url": {
									"raw": "{{BaseUrl}}/logout",
									"host": [
										"{{BaseUrl}}"
									],
									"path": [
										"logout"
									]
								}
							},
							"response": []
						}
					]
				},
				{
					"name": "Private part - Edit user profile",
					"item": [
						{
							"name": "Login user",
							"event": [
								{
									"listen": "test",
									"script": {
										"exec": [
											"pm.test(\"Status code is 200\", function () {\r",
											"    pm.response.to.have.status(200);\r",
											"});\r",
											"\r",
											"pm.collectionVariables.set(\"login_cookie\", pm.cookies.get('JSESSIONID'));\r",
											"console.log(pm.cookies.get('JSESSIONID'));\r",
											"\r",
											"pm.test(\"Validate HTML response values after login\",function(){\r",
											"const $ = cheerio.load(pm.response.text());\r",
											"link = $('a');\r",
											"pm.expect($(link).attr('href').includes('LOGOUT')).not.to.be.null;\r",
											"});\r",
											"\r",
											"pm.test(\"The username and password are correct\", function () {\r",
											"   pm.expect(pm.response.text()).not.to.include(\"Wrong username or password.\");\r",
											"});"
										],
										"type": "text/javascript"
									}
								}
							],
							"request": {
								"method": "POST",
								"header": [],
								"body": {
									"mode": "formdata",
									"formdata": [
										{
											"key": "username",
											"value": "{{userName}}",
											"type": "text"
										},
										{
											"key": "password",
											"value": "{{userPassword}}",
											"type": "text"
										}
									]
								},
								"url": {
									"raw": "{{BaseUrl}}/authenticate",
									"host": [
										"{{BaseUrl}}"
									],
									"path": [
										"authenticate"
									]
								}
							},
							"response": []
						},
						{
							"name": "Edit user Personal profile",
							"event": [
								{
									"listen": "prerequest",
									"script": {
										"exec": [
											"pm.environment.set(\"FirstName\", pm.variables.replaceIn('{{$randomFirstName}}'));\r",
											"pm.environment.set(\"LastName\", pm.variables.replaceIn('{{$randomLastName}}'));\r",
											"\r",
											"let randomNumForCity= Math.floor(Math.random() * (39 - 1 + 1)) + 1;\r",
											"pm.environment.set(\"CityId\", pm.variables.replaceIn(randomNumForCity));\r",
											"\r",
											"let arrGender = [\"MALE\",\"FEMALE\"];\r",
											"let randomGender = Math.floor(Math.random() * arrGender.length);\r",
											"pm.environment.set(\"sex\", pm.variables.replaceIn(arrGender[randomGender]));"
										],
										"type": "text/javascript"
									}
								},
								{
									"listen": "test",
									"script": {
										"exec": [
											"var jsonData = pm.response.json();\r",
											"\r",
											"pm.test(\"Status code is 200\", function () {\r",
											"    pm.response.to.have.status(200);\r",
											"});\r",
											"\r",
											"pm.test(\"User's birthday is edited\", function () {\r",
											"    pm.expect(jsonData.birthYear).to.eql(\"2000-10-20\");\r",
											"});\r",
											"\r",
											"pm.test(\"User's first Name is edited\", function () {\r",
											"    pm.expect(jsonData.firstName).to.eql(pm.environment.get(\"FirstName\"));\r",
											"});\r",
											"\r",
											"pm.test(\"User's last Name is edited\", function () {\r",
											"    pm.expect(jsonData.lastName).to.eql(pm.environment.get(\"LastName\"));\r",
											"});\r",
											"\r",
											"pm.test(\"User's city is edited\", function () {\r",
											"    pm.expect(jsonData.location.city.id).to.eql(pm.environment.get(\"CityId\"));\r",
											"});\r",
											"\r",
											"pm.test(\"User's sex is edited\", function () {\r",
											"    pm.expect(jsonData.sex).to.eql(pm.environment.get(\"sex\"));\r",
											"});"
										],
										"type": "text/javascript"
									}
								}
							],
							"request": {
								"method": "POST",
								"header": [],
								"body": {
									"mode": "raw",
									"raw": "{\r\n  \"birthYear\": \"2000-10-20\",\r\n  \"firstName\": \"{{FirstName}}\",\r\n  \"id\": {{userID}},\r\n  \"lastName\": \"{{LastName}}\",\r\n  \"location\": {\r\n       \"city\": {\r\n       \"id\": {{CityId}},\r\n       \"country\": {}\r\n    },\r\n    \"id\": \"{{CategoryId}}\"\r\n  },\r\n  \"memberSince\": \"\",\r\n  \"personalReview\": \"\",\r\n  \"picture\": \"\",\r\n  \"picturePrivacy\": true,\r\n  \"sex\": \"{{sex}}\"\r\n}",
									"options": {
										"raw": {
											"language": "json"
										}
									}
								},
								"url": {
									"raw": "{{BaseUrl}}/api/users/auth/{{userID}}/personal",
									"host": [
										"{{BaseUrl}}"
									],
									"path": [
										"api",
										"users",
										"auth",
										"{{userID}}",
										"personal"
									]
								}
							},
							"response": []
						},
						{
							"name": "Edit Expertise Profile",
							"event": [
								{
									"listen": "prerequest",
									"script": {
										"exec": [
											"pm.environment.set(\"firstSkill\", pm.variables.replaceIn('{{$randomLoremWords}}'));\r",
											"pm.environment.set(\"secondSkill\", pm.variables.replaceIn('{{$randomLoremWords}}'));\r",
											"\r",
											"let randomNumForAvailability= Math.floor(Math.random() * (164.0 - 0.0 + 1)) + 0.0;\r",
											"pm.environment.set(\"Availability\", pm.variables.replaceIn(randomNumForAvailability));\r",
											""
										],
										"type": "text/javascript"
									}
								},
								{
									"listen": "test",
									"script": {
										"exec": [
											"let jsonData = pm.response.json();\r",
											"\r",
											"pm.test(\"Status code is 200\", function () {\r",
											"    pm.response.to.have.status(200);\r",
											"});\r",
											"\r",
											"pm.test(\"Frist skill is edited\", function () {\r",
											"    pm.expect(pm.response.json().skills[0].skill).to.eql(pm.environment.get(\"firstSkill\"));\r",
											"});\r",
											"\r",
											"pm.test(\"Second skill is edited\", function () {\r",
											"    pm.expect(pm.response.json().skills[1].skill).to.eql(pm.environment.get(\"secondSkill\"));\r",
											"});\r",
											"\r",
											"pm.test(\"Availability is edited\", function () {\r",
											"    pm.expect(jsonData.availability).to.eql(pm.environment.get(\"Availability\"));\r",
											"});\r",
											"\r",
											"pm.test(\"Category is updated in the user profile\", function () {\r",
											"   pm.expect(pm.response.json().skills[0].category.id).to.eql(pm.environment.get(\"CategoryId\"));\r",
											"});"
										],
										"type": "text/javascript"
									}
								}
							],
							"request": {
								"method": "POST",
								"header": [],
								"body": {
									"mode": "raw",
									"raw": "{\r\n  \"availability\":{{Availability}},\r\n  \"category\": {\r\n    \"id\": {{CategoryId}},\r\n    \"name\": \"{{CategoryName}}\"\r\n  },\r\n  \"id\": 5,\r\n  \"skill1\": \"{{firstSkill}}\",\r\n  \"skill2\": \"{{secondSkill}}\",\r\n  \"skill3\": \"\",\r\n  \"skill4\": \"\",\r\n  \"skill5\": \"\",\r\n  \"skills\": [\r\n    \"\"\r\n  ]\r\n}",
									"options": {
										"raw": {
											"language": "json"
										}
									}
								},
								"url": {
									"raw": "{{BaseUrl}}/api/users/auth/{{userID}}/expertise",
									"host": [
										"{{BaseUrl}}"
									],
									"path": [
										"api",
										"users",
										"auth",
										"{{userID}}",
										"expertise"
									]
								}
							},
							"response": []
						},
						{
							"name": "Get user by Id",
							"event": [
								{
									"listen": "test",
									"script": {
										"exec": [
											"let jsonData = pm.response.json();\r",
											"\r",
											"pm.test(\"Status code is 200\", function () {\r",
											"    pm.response.to.have.status(200);\r",
											"});\r",
											"\r",
											"pm.test(\"User's e-mail is correct\", function () {\r",
											"    pm.expect(jsonData.email).to.eql(pm.environment.get(\"userEmail\"));\r",
											"});\r",
											"\r",
											"pm.test(\"User's first Name is correct\", function () {\r",
											"    pm.expect(jsonData.firstName).to.eql(pm.environment.get(\"FirstName\"));\r",
											"});\r",
											"\r",
											"pm.test(\"User's last Name is correct\", function () {\r",
											"    pm.expect(jsonData.lastNAme).to.eql(pm.environment.get(\"LastName\"));\r",
											"});\r",
											"\r",
											"pm.test(\"User's city is edited\", function () {\r",
											"    pm.expect(jsonData.city.id).to.eql(pm.environment.get(\"CityId\"));\r",
											"});\r",
											"\r",
											"pm.test(\"Skills are correct\", function () {\r",
											"   pm.expect(pm.response.json().skills[0]).to.eql(pm.environment.get(\"firstSkill\"));\r",
											"   pm.expect(pm.response.json().skills[1]).to.eql(pm.environment.get(\"secondSkill\"));\r",
											"});"
										],
										"type": "text/javascript"
									}
								}
							],
							"request": {
								"method": "GET",
								"header": [],
								"url": {
									"raw": "{{BaseUrl}}/api/users/auth/{{userID}}?principal={{userName}}",
									"host": [
										"{{BaseUrl}}"
									],
									"path": [
										"api",
										"users",
										"auth",
										"{{userID}}"
									],
									"query": [
										{
											"key": "principal",
											"value": "{{userName}}"
										}
									]
								}
							},
							"response": []
						},
						{
							"name": "Logout user",
							"event": [
								{
									"listen": "test",
									"script": {
										"exec": [
											"pm.test(\"Status code is 200\", function () {\r",
											"    pm.response.to.have.status(200);\r",
											"});\r",
											"\r",
											"pm.test(\"Validate HTML response values after logout\",function(){\r",
											"const $ = cheerio.load(pm.response.text());\r",
											"link = $('a');\r",
											"pm.expect($(link).attr('href').includes('Sign In')).not.to.be.null;\r",
											"pm.expect($(link).attr('href').includes('Create Account')).not.to.be.null;\r",
											"});"
										],
										"type": "text/javascript"
									}
								}
							],
							"request": {
								"method": "GET",
								"header": [],
								"url": {
									"raw": "{{BaseUrl}}/logout",
									"host": [
										"{{BaseUrl}}"
									],
									"path": [
										"logout"
									]
								}
							},
							"response": []
						}
					]
				},
				{
					"name": "Private Part - Post functionalities",
					"item": [
						{
							"name": "Create Post",
							"item": [
								{
									"name": "Login user",
									"event": [
										{
											"listen": "test",
											"script": {
												"exec": [
													"pm.test(\"Status code is 200\", function () {\r",
													"    pm.response.to.have.status(200);\r",
													"});\r",
													"\r",
													"pm.collectionVariables.set(\"login_cookie\", pm.cookies.get('JSESSIONID'));\r",
													"console.log(pm.cookies.get('JSESSIONID'));\r",
													"\r",
													"pm.test(\"Validate HTML response values after login\",function(){\r",
													"const $ = cheerio.load(pm.response.text());\r",
													"link = $('a');\r",
													"pm.expect($(link).attr('href').includes('LOGOUT')).not.to.be.null;\r",
													"});\r",
													"\r",
													"pm.test(\"The username and password are correct\", function () {\r",
													"   pm.expect(pm.response.text()).not.to.include(\"Wrong username or password.\");\r",
													"});"
												],
												"type": "text/javascript"
											}
										}
									],
									"request": {
										"method": "POST",
										"header": [],
										"body": {
											"mode": "formdata",
											"formdata": [
												{
													"key": "username",
													"value": "{{userName}}",
													"type": "text"
												},
												{
													"key": "password",
													"value": "{{userPassword}}",
													"type": "text"
												}
											]
										},
										"url": {
											"raw": "{{BaseUrl}}/authenticate",
											"host": [
												"{{BaseUrl}}"
											],
											"path": [
												"authenticate"
											]
										}
									},
									"response": []
								},
								{
									"name": "Create a post (Public)",
									"event": [
										{
											"listen": "prerequest",
											"script": {
												"exec": [
													"var randomPhrase = pm.environment.replaceIn('{{$randomPhrase}}');\r",
													"pm.environment.set(\"publicPostText\",randomPhrase);"
												],
												"type": "text/javascript"
											}
										},
										{
											"listen": "test",
											"script": {
												"exec": [
													"var jsonRes = pm.response.json();\r",
													"\r",
													"pm.test(\"Status code is 200\", function () {\r",
													"    pm.response.to.have.status(200);\r",
													"});\r",
													"\r",
													"pm.test(\"Validate post content matches request\", function(){\r",
													"    pm.expect(jsonRes.content).to.eql(pm.environment.get(\"publicPostText\"));\r",
													"});\r",
													"\r",
													"pm.test(\"Validate new post is not liked yet\",function(){\r",
													"    pm.expect(jsonRes.liked).to.be.false;\r",
													"});\r",
													"\r",
													"pm.test(\"Validate new post is Public\",function(){\r",
													"    pm.expect(jsonRes.public).to.be.true;\r",
													"});\r",
													"\r",
													"pm.environment.set(\"publicPostID\", jsonRes.postId);\r",
													"\r",
													""
												],
												"type": "text/javascript"
											}
										}
									],
									"request": {
										"method": "POST",
										"header": [],
										"body": {
											"mode": "raw",
											"raw": "{\r\n  \"content\": \"{{publicPostText}}\",\r\n  \"picture\": \"\",\r\n  \"public\": true\r\n}",
											"options": {
												"raw": {
													"language": "json"
												}
											}
										},
										"url": {
											"raw": "{{BaseUrl}}/api/post/auth/creator",
											"host": [
												"{{BaseUrl}}"
											],
											"path": [
												"api",
												"post",
												"auth",
												"creator"
											]
										}
									},
									"response": []
								},
								{
									"name": "Create a post (Private)",
									"event": [
										{
											"listen": "prerequest",
											"script": {
												"exec": [
													"var randomPhrase = pm.environment.replaceIn('{{$randomPhrase}}');\r",
													"pm.environment.set(\"privatePostText\",randomPhrase);"
												],
												"type": "text/javascript"
											}
										},
										{
											"listen": "test",
											"script": {
												"exec": [
													"var jsonRes = pm.response.json();\r",
													"\r",
													"pm.test(\"Status code is 200\", function () {\r",
													"    pm.response.to.have.status(200);\r",
													"});\r",
													"\r",
													"pm.test(\"Validate post content matches request\", function(){\r",
													"    pm.expect(jsonRes.content).to.eql(pm.environment.get(\"privatePostText\"));\r",
													"});\r",
													"\r",
													"pm.test(\"Validate new post is not liked yet\",function(){\r",
													"    pm.expect(jsonRes.liked).to.be.false;\r",
													"});\r",
													"\r",
													"pm.test(\"Validate new post is Private\",function(){\r",
													"    pm.expect(jsonRes.public).to.be.false;\r",
													"});\r",
													"\r",
													"pm.environment.set(\"privatePostID\", jsonRes.postId);\r",
													"\r",
													""
												],
												"type": "text/javascript"
											}
										}
									],
									"request": {
										"method": "POST",
										"header": [],
										"body": {
											"mode": "raw",
											"raw": "{\r\n  \"content\": \"{{privatePostText}}\",\r\n  \"picture\": \"\",\r\n  \"public\": false\r\n}",
											"options": {
												"raw": {
													"language": "json"
												}
											}
										},
										"url": {
											"raw": "{{BaseUrl}}/api/post/auth/creator",
											"host": [
												"{{BaseUrl}}"
											],
											"path": [
												"api",
												"post",
												"auth",
												"creator"
											]
										}
									},
									"response": []
								},
								{
									"name": "Get all posts",
									"event": [
										{
											"listen": "test",
											"script": {
												"exec": [
													"var jsonRes = pm.response.json();\r",
													"\r",
													"pm.test(\"Status code is 200\", function () {\r",
													"    pm.response.to.have.status(200);\r",
													"});\r",
													"\r",
													"pm.test(\"Validate response attributes\",function(){\r",
													"    pm.expect(jsonRes[0]).to.have.property(\"postId\");\r",
													"    pm.expect(jsonRes[0]).to.have.property(\"content\");\r",
													"    pm.expect(jsonRes[0]).to.have.property(\"date\");\r",
													"    pm.expect(jsonRes[0]).to.have.property(\"likes\");\r",
													"    pm.expect(jsonRes[0]).to.have.property(\"comments\");\r",
													"    pm.expect(jsonRes[0]).to.have.property(\"rank\");\r",
													"});\r",
													"\r",
													"// pm.test(\"Validate latest Public post from the list has the same ID as the newly created one\",function(){\r",
													"//     pm.expect(jsonRes[0].postId).to.eql(pm.environment.get(\"publicPostID\"));\r",
													"// });\r",
													"\r",
													""
												],
												"type": "text/javascript"
											}
										}
									],
									"request": {
										"method": "GET",
										"header": [],
										"url": {
											"raw": "{{BaseUrl}}/api/post/",
											"host": [
												"{{BaseUrl}}"
											],
											"path": [
												"api",
												"post",
												""
											]
										}
									},
									"response": []
								}
							]
						},
						{
							"name": "Edit Post",
							"item": [
								{
									"name": "Edit post (Public)",
									"event": [
										{
											"listen": "prerequest",
											"script": {
												"exec": [
													"var updatedPublicPostText = \"Public post updated through Postman\";\r",
													"pm.environment.set(\"publicPostText_Updated\",updatedPublicPostText);"
												],
												"type": "text/javascript"
											}
										},
										{
											"listen": "test",
											"script": {
												"exec": [
													"pm.test(\"Status code is 200\", function () {\r",
													"    pm.response.to.have.status(200);\r",
													"});"
												],
												"type": "text/javascript"
											}
										}
									],
									"request": {
										"method": "PUT",
										"header": [],
										"body": {
											"mode": "raw",
											"raw": "{\r\n  \"content\": \"{{publicPostText_Updated}}\",\r\n  \"picture\": \"\",\r\n  \"public\": true\r\n}",
											"options": {
												"raw": {
													"language": "json"
												}
											}
										},
										"url": {
											"raw": "{{BaseUrl}}/api/post/auth/editor/?postId={{publicPostID}}",
											"host": [
												"{{BaseUrl}}"
											],
											"path": [
												"api",
												"post",
												"auth",
												"editor",
												""
											],
											"query": [
												{
													"key": "postId",
													"value": "{{publicPostID}}"
												}
											]
										}
									},
									"response": []
								},
								{
									"name": "Validate Updated Post (Public)",
									"event": [
										{
											"listen": "test",
											"script": {
												"exec": [
													"var jsonRes = pm.response.json();\r",
													"\r",
													"pm.test(\"Status code is 200\", function () {\r",
													"    pm.response.to.have.status(200);\r",
													"});\r",
													"\r",
													"pm.test(\"Validate latest public post is updated with the new content\", function () {\r",
													"    pm.expect(pm.response.text()).to.include(pm.environment.get(\"publicPostText_Updated\"));\r",
													"});\r",
													"\r",
													"pm.test(\"Validate latest post is public\",function(){\r",
													"    pm.expect(jsonRes[0].public).to.be.true;\r",
													"});"
												],
												"type": "text/javascript"
											}
										}
									],
									"request": {
										"method": "GET",
										"header": [],
										"url": {
											"raw": "{{BaseUrl}}/api/post/",
											"host": [
												"{{BaseUrl}}"
											],
											"path": [
												"api",
												"post",
												""
											]
										}
									},
									"response": []
								},
								{
									"name": "Edit post (Private)",
									"event": [
										{
											"listen": "prerequest",
											"script": {
												"exec": [
													"var updatedPrivatePostText = \"Private post updated through Postman\";\r",
													"pm.environment.set(\"privatePostText_Updated\",updatedPrivatePostText);"
												],
												"type": "text/javascript"
											}
										},
										{
											"listen": "test",
											"script": {
												"exec": [
													"pm.test(\"Status code is 200\", function () {\r",
													"    pm.response.to.have.status(200);\r",
													"});"
												],
												"type": "text/javascript"
											}
										}
									],
									"request": {
										"method": "PUT",
										"header": [],
										"body": {
											"mode": "raw",
											"raw": "{\r\n  \"content\": \"{{privatePostText_Updated}}\",\r\n  \"picture\": \"\",\r\n  \"public\": false\r\n}",
											"options": {
												"raw": {
													"language": "json"
												}
											}
										},
										"url": {
											"raw": "{{BaseUrl}}/api/post/auth/editor/?postId={{privatePostID}}",
											"host": [
												"{{BaseUrl}}"
											],
											"path": [
												"api",
												"post",
												"auth",
												"editor",
												""
											],
											"query": [
												{
													"key": "postId",
													"value": "{{privatePostID}}"
												}
											]
										}
									},
									"response": []
								},
								{
									"name": "Validate Updated Post (Private)",
									"event": [
										{
											"listen": "test",
											"script": {
												"exec": [
													"\r",
													"pm.test(\"Status code is 200\", function () {\r",
													"    pm.response.to.have.status(200);\r",
													"});\r",
													"\r",
													"pm.test(\"Validate latest private post is updated with the new content\", function () {\r",
													"    pm.expect(pm.response.text()).to.include(pm.environment.get(\"privatePostText_Updated\"));\r",
													"});\r",
													"\r",
													""
												],
												"type": "text/javascript"
											}
										}
									],
									"request": {
										"method": "GET",
										"header": [],
										"url": {
											"raw": "{{BaseUrl}}/api/post/",
											"host": [
												"{{BaseUrl}}"
											],
											"path": [
												"api",
												"post",
												""
											]
										}
									},
									"response": []
								}
							]
						},
						{
							"name": "Like & Dislike a post",
							"item": [
								{
									"name": "Like post (Public)",
									"event": [
										{
											"listen": "test",
											"script": {
												"exec": [
													"var jsonRes = pm.response.json();\r",
													"\r",
													"pm.test(\"Status code is 200\", function () {\r",
													"    pm.response.to.have.status(200);\r",
													"});\r",
													"\r",
													"pm.test(\"Validate post is successfully liked\", function () {\r",
													"        pm.expect(jsonRes.liked).is.equal(true);\r",
													"});\r",
													"\r",
													"pm.test(\"Validate post ID matches the one of the request\", function () {\r",
													"    pm.expect(jsonRes.postId).to.eql(pm.environment.get(\"publicPostID\"));\r",
													"});\r",
													""
												],
												"type": "text/javascript"
											}
										}
									],
									"request": {
										"method": "POST",
										"header": [],
										"url": {
											"raw": "{{BaseUrl}}/api/post/auth/likesUp?postId={{publicPostID}}",
											"host": [
												"{{BaseUrl}}"
											],
											"path": [
												"api",
												"post",
												"auth",
												"likesUp"
											],
											"query": [
												{
													"key": "postId",
													"value": "{{publicPostID}}"
												}
											]
										}
									},
									"response": []
								},
								{
									"name": "Dislike post (Public)",
									"event": [
										{
											"listen": "test",
											"script": {
												"exec": [
													"var jsonRes = pm.response.json();\r",
													"\r",
													"pm.test(\"Status code is 200\", function () {\r",
													"    pm.response.to.have.status(200);\r",
													"});\r",
													"\r",
													"pm.test(\"Validate post is successfully disliked\", function () {\r",
													"        pm.expect(jsonRes.liked).is.equal(false);\r",
													"});\r",
													"\r",
													"pm.test(\"Validate post ID matches the one of the request\", function () {\r",
													"    pm.expect(jsonRes.postId).to.eql(pm.environment.get(\"publicPostID\"));\r",
													"});\r",
													""
												],
												"type": "text/javascript"
											}
										}
									],
									"request": {
										"method": "POST",
										"header": [],
										"url": {
											"raw": "{{BaseUrl}}/api/post/auth/likesUp?postId={{publicPostID}}",
											"host": [
												"{{BaseUrl}}"
											],
											"path": [
												"api",
												"post",
												"auth",
												"likesUp"
											],
											"query": [
												{
													"key": "postId",
													"value": "{{publicPostID}}"
												}
											]
										}
									},
									"response": []
								}
							]
						},
						{
							"name": "Delete Post",
							"item": [
								{
									"name": "Get all posts",
									"event": [
										{
											"listen": "test",
											"script": {
												"exec": [
													"let jsonRes = pm.response.json();\r",
													"pm.environment.set(\"totalNumberOfPosts\",jsonRes.length);\r",
													"\r",
													"pm.test(\"Status code is 200\", function () {\r",
													"    pm.response.to.have.status(200);\r",
													"});"
												],
												"type": "text/javascript"
											}
										}
									],
									"request": {
										"method": "GET",
										"header": [],
										"url": {
											"raw": "{{BaseUrl}}/api/post/",
											"host": [
												"{{BaseUrl}}"
											],
											"path": [
												"api",
												"post",
												""
											]
										}
									},
									"response": []
								},
								{
									"name": "Delete post (Public)",
									"event": [
										{
											"listen": "prerequest",
											"script": {
												"exec": [
													""
												],
												"type": "text/javascript"
											}
										},
										{
											"listen": "test",
											"script": {
												"exec": [
													"pm.test(\"Status code is 200\", function () {\r",
													"    pm.response.to.have.status(200);\r",
													"});\r",
													"\r",
													"pm.test(\"Validate total number of posts is smaller than before deletion\", function () {\r",
													"    var postsNumber = pm.environment.get(\"totalNumberOfPosts\");\r",
													"    pm.expect(pm.response.length).to.not.be.equal(postsNumber);\r",
													"});"
												],
												"type": "text/javascript"
											}
										}
									],
									"request": {
										"method": "DELETE",
										"header": [],
										"url": {
											"raw": "{{BaseUrl}}/api/post/auth/manager?postId={{publicPostID}}",
											"host": [
												"{{BaseUrl}}"
											],
											"path": [
												"api",
												"post",
												"auth",
												"manager"
											],
											"query": [
												{
													"key": "postId",
													"value": "{{publicPostID}}"
												}
											]
										}
									},
									"response": []
								}
							]
						},
						{
							"name": "Logout user",
							"event": [
								{
									"listen": "test",
									"script": {
										"exec": [
											"pm.test(\"Status code is 200\", function () {\r",
											"    pm.response.to.have.status(200);\r",
											"});\r",
											"\r",
											"pm.test(\"Validate HTML response values after logout\",function(){\r",
											"const $ = cheerio.load(pm.response.text());\r",
											"link = $('a');\r",
											"pm.expect($(link).attr('href').includes('Sign In')).not.to.be.null;\r",
											"pm.expect($(link).attr('href').includes('Create Account')).not.to.be.null;\r",
											"});"
										],
										"type": "text/javascript"
									}
								}
							],
							"request": {
								"method": "GET",
								"header": [],
								"url": {
									"raw": "{{BaseUrl}}/logout",
									"host": [
										"{{BaseUrl}}"
									],
									"path": [
										"logout"
									]
								}
							},
							"response": []
						}
					]
				},
				{
					"name": "Private Part - Comment functionalities",
					"item": [
						{
							"name": "Create Comment",
							"item": [
								{
									"name": "Login user",
									"event": [
										{
											"listen": "test",
											"script": {
												"exec": [
													"pm.test(\"Status code is 200\", function () {\r",
													"    pm.response.to.have.status(200);\r",
													"});\r",
													"\r",
													"pm.collectionVariables.set(\"login_cookie\", pm.cookies.get('JSESSIONID'));\r",
													"console.log(pm.cookies.get('JSESSIONID'));\r",
													"\r",
													"pm.test(\"Validate HTML response values after login\",function(){\r",
													"const $ = cheerio.load(pm.response.text());\r",
													"link = $('a');\r",
													"pm.expect($(link).attr('href').includes('LOGOUT')).not.to.be.null;\r",
													"});\r",
													"\r",
													"pm.test(\"The username and password are correct\", function () {\r",
													"   pm.expect(pm.response.text()).not.to.include(\"Wrong username or password.\");\r",
													"});"
												],
												"type": "text/javascript"
											}
										}
									],
									"request": {
										"method": "POST",
										"header": [],
										"body": {
											"mode": "formdata",
											"formdata": [
												{
													"key": "username",
													"value": "{{userName}}",
													"type": "text"
												},
												{
													"key": "password",
													"value": "{{userPassword}}",
													"type": "text"
												}
											]
										},
										"url": {
											"raw": "{{BaseUrl}}/authenticate",
											"host": [
												"{{BaseUrl}}"
											],
											"path": [
												"authenticate"
											]
										}
									},
									"response": []
								},
								{
									"name": "Create a post (Public)",
									"event": [
										{
											"listen": "prerequest",
											"script": {
												"exec": [
													"var randomPhrase = pm.environment.replaceIn('{{$randomLoremSentence}}');\r",
													"pm.environment.set(\"publicPostText\",randomPhrase);"
												],
												"type": "text/javascript"
											}
										},
										{
											"listen": "test",
											"script": {
												"exec": [
													"var jsonRes = pm.response.json();\r",
													"\r",
													"pm.test(\"Status code is 200\", function () {\r",
													"    pm.response.to.have.status(200);\r",
													"});\r",
													"\r",
													"pm.test(\"Validate post content matches request\", function(){\r",
													"    pm.expect(jsonRes.content).to.eql(pm.environment.get(\"publicPostText\"));\r",
													"});\r",
													"\r",
													"pm.test(\"Validate new post is not liked yet\",function(){\r",
													"    pm.expect(jsonRes.liked).to.be.false;\r",
													"});\r",
													"\r",
													"pm.test(\"Validate new post is Public\",function(){\r",
													"    pm.expect(jsonRes.public).to.be.true;\r",
													"});\r",
													"\r",
													"pm.environment.set(\"publicPostID\", jsonRes.postId);\r",
													"\r",
													""
												],
												"type": "text/javascript"
											}
										}
									],
									"request": {
										"method": "POST",
										"header": [],
										"body": {
											"mode": "raw",
											"raw": "{\r\n  \"content\": \"{{publicPostText}}\",\r\n  \"picture\": \"\",\r\n  \"public\": true\r\n}",
											"options": {
												"raw": {
													"language": "json"
												}
											}
										},
										"url": {
											"raw": "{{BaseUrl}}/api/post/auth/creator",
											"host": [
												"{{BaseUrl}}"
											],
											"path": [
												"api",
												"post",
												"auth",
												"creator"
											]
										}
									},
									"response": []
								},
								{
									"name": "Create comment",
									"event": [
										{
											"listen": "test",
											"script": {
												"exec": [
													"var jsonRes = pm.response.json();\r",
													"\r",
													"pm.environment.set(\"commentID\", jsonRes.commentId);\r",
													"\r",
													"pm.test(\"Status code is 200\", function () {\r",
													"    pm.response.to.have.status(200);\r",
													"});\r",
													"\r",
													"pm.test(\"Validate comment matches text\", function(){\r",
													"    pm.expect(jsonRes.content).to.eql(pm.environment.get(\"textComment\"));\r",
													"});\r",
													"\r",
													"pm.test(\"Validate comment has ID\", function () {\r",
													"     pm.expect(jsonRes.commentId).to.not.null;\r",
													"});\r",
													"\r",
													"pm.test(\"Validate comment has 0 likes\", function () {\r",
													"    pm.expect(jsonRes.liked).to.eql(false);\r",
													"});\r",
													"\r",
													"pm.test(\"Validate comment is not empty\", function () {\r",
													"    pm.expect(jsonRes.content).to.be.not.empty;\r",
													"});\r",
													""
												],
												"type": "text/javascript"
											}
										},
										{
											"listen": "prerequest",
											"script": {
												"exec": [
													"var randomTextComment = pm.environment.replaceIn('{{$randomLoremSentence}}');\r",
													"pm.environment.set(\"textComment\",randomTextComment);"
												],
												"type": "text/javascript"
											}
										}
									],
									"request": {
										"method": "POST",
										"header": [],
										"body": {
											"mode": "raw",
											"raw": "{\r\n    \"commentId\": 1,\r\n    \"content\": \"{{textComment}}\",\r\n    \"deletedConfirmed\": true,\r\n    \"postId\": {{publicPostID}},\r\n    \"userId\": {{userID}}\r\n}",
											"options": {
												"raw": {
													"language": "json"
												}
											}
										},
										"url": {
											"raw": "{{BaseUrl}}/api/comment/auth/creator",
											"host": [
												"{{BaseUrl}}"
											],
											"path": [
												"api",
												"comment",
												"auth",
												"creator"
											]
										}
									},
									"response": []
								},
								{
									"name": "Validate created comment",
									"event": [
										{
											"listen": "test",
											"script": {
												"exec": [
													"var jsonRes = pm.response.json();\r",
													"\r",
													"pm.test(\"Status code is 200\", function () {\r",
													"    pm.response.to.have.status(200);\r",
													"});\r",
													"\r",
													"pm.test(\"Validate commentID has the same ID from the response\", function () {\r",
													"    pm.expect(jsonRes.commentId).to.eql(pm.environment.get(\"commentID\"));\r",
													"});\r",
													"\r",
													"pm.test(\"Validate if comment has the same content\", function () {\r",
													"    pm.expect(jsonRes.content).to.eql(pm.environment.get(\"textComment\"));\r",
													"});"
												],
												"type": "text/javascript"
											}
										}
									],
									"request": {
										"method": "GET",
										"header": [],
										"url": {
											"raw": "{{BaseUrl}}/api/comment/single?commentId={{commentID}}",
											"host": [
												"{{BaseUrl}}"
											],
											"path": [
												"api",
												"comment",
												"single"
											],
											"query": [
												{
													"key": "commentId",
													"value": "{{commentID}}"
												}
											]
										}
									},
									"response": []
								},
								{
									"name": "Get all comments",
									"event": [
										{
											"listen": "test",
											"script": {
												"exec": [
													"pm.test(\"Status code is 200\", function () {\r",
													"    pm.response.to.have.status(200);\r",
													"});\r",
													"\r",
													"\r",
													"\r",
													""
												],
												"type": "text/javascript"
											}
										}
									],
									"request": {
										"method": "GET",
										"header": [],
										"url": {
											"raw": "{{BaseUrl}}/api/comment",
											"host": [
												"{{BaseUrl}}"
											],
											"path": [
												"api",
												"comment"
											]
										}
									},
									"response": []
								}
							]
						},
						{
							"name": "Edit Comment",
							"item": [
								{
									"name": "Edit comment",
									"event": [
										{
											"listen": "test",
											"script": {
												"exec": [
													"pm.test(\"Status code is 200\", function () {\r",
													"    pm.response.to.have.status(200);\r",
													"});\r",
													""
												],
												"type": "text/javascript"
											}
										},
										{
											"listen": "prerequest",
											"script": {
												"exec": [
													"var randomEditComment = pm.environment.replaceIn('{{$randomLoremSentence}}');\r",
													"pm.environment.set(\"editCommentText\",randomEditComment);"
												],
												"type": "text/javascript"
											}
										}
									],
									"request": {
										"method": "PUT",
										"header": [],
										"url": {
											"raw": "{{BaseUrl}}/api/comment/auth/editor?commentId={{commentID}}&content={{editCommentText}}",
											"host": [
												"{{BaseUrl}}"
											],
											"path": [
												"api",
												"comment",
												"auth",
												"editor"
											],
											"query": [
												{
													"key": "commentId",
													"value": "{{commentID}}"
												},
												{
													"key": "content",
													"value": "{{editCommentText}}"
												}
											]
										}
									},
									"response": []
								},
								{
									"name": "Validate edited comment",
									"event": [
										{
											"listen": "test",
											"script": {
												"exec": [
													"var jsonRes = pm.response.json();\r",
													"\r",
													"pm.test(\"Status code is 200\", function () {\r",
													"    pm.response.to.have.status(200);\r",
													"});\r",
													"\r",
													"pm.test(\"Validate comment matches text\", function(){\r",
													"    var jsonRes = pm.response.json();\r",
													"    pm.expect(jsonRes.content).to.eql(pm.environment.get(\"editCommentText\"));\r",
													"});\r",
													"\r",
													"pm.test(\"Validate comment has ID\", function () {\r",
													"     pm.expect(jsonRes.commentId).to.not.null;\r",
													"});\r",
													"\r",
													"pm.test(\"Validate comment has 0 likes\", function () {\r",
													"    pm.expect(jsonRes.liked).to.eql(false);\r",
													"});\r",
													"\r",
													"pm.test(\"Validate comment is not empty\", function () {\r",
													"    pm.expect(jsonRes.content).to.be.not.empty;\r",
													"});"
												],
												"type": "text/javascript"
											}
										}
									],
									"request": {
										"method": "GET",
										"header": [],
										"url": {
											"raw": "{{BaseUrl}}/api/comment/single?commentId={{commentID}}",
											"host": [
												"{{BaseUrl}}"
											],
											"path": [
												"api",
												"comment",
												"single"
											],
											"query": [
												{
													"key": "commentId",
													"value": "{{commentID}}"
												}
											]
										}
									},
									"response": []
								}
							]
						},
						{
							"name": "Like Comment",
							"item": [
								{
									"name": "Get all comments",
									"event": [
										{
											"listen": "test",
											"script": {
												"exec": [
													"var jsonRes = pm.response.json();\r",
													"\r",
													"pm.test(\"Status code is 200\", function () {\r",
													"    pm.response.to.have.status(200);\r",
													"});\r",
													"\r",
													"pm.test(\"Validate all data about the comment is icluded\", function () {\r",
													"    pm.expect(jsonRes[0]).to.have.property(\"commentId\");\r",
													"    pm.expect(jsonRes[0]).to.have.property(\"content\");\r",
													"    pm.expect(jsonRes[0]).to.have.property(\"likes\");\r",
													"    pm.expect(jsonRes[0]).to.have.property(\"date\");\r",
													"    pm.expect(jsonRes[0]).to.have.property(\"liked\");\r",
													"});"
												],
												"type": "text/javascript"
											}
										}
									],
									"request": {
										"method": "GET",
										"header": [],
										"url": {
											"raw": "{{BaseUrl}}/api/comment",
											"host": [
												"{{BaseUrl}}"
											],
											"path": [
												"api",
												"comment"
											]
										}
									},
									"response": []
								},
								{
									"name": "Like comment",
									"event": [
										{
											"listen": "test",
											"script": {
												"exec": [
													"var jsonRes = pm.response.json();\r",
													"\r",
													"pm.test(\"Status code is 200\", function () {\r",
													"    pm.response.to.have.status(200);\r",
													"});\r",
													"\r",
													"pm.test(\"Validate commentID has the same ID from the response\", function () {\r",
													"    pm.expect(jsonRes.commentId).to.eql(pm.environment.get(\"commentID\"));\r",
													"});\r",
													"\r",
													"pm.test(\"Validate response has same content\", function () {\r",
													"    pm.expect(jsonRes.content).to.eql(pm.environment.get(\"editCommentText\"))\r",
													"});\r",
													"\r",
													"pm.test(\"Validate the post has more than 0 likes\", function () {\r",
													"        pm.expect(jsonRes.liked).is.equal(true);\r",
													"});"
												],
												"type": "text/javascript"
											}
										}
									],
									"request": {
										"method": "POST",
										"header": [],
										"url": {
											"raw": "{{BaseUrl}}/api/comment/auth/likesUp?commentId={{commentID}}",
											"host": [
												"{{BaseUrl}}"
											],
											"path": [
												"api",
												"comment",
												"auth",
												"likesUp"
											],
											"query": [
												{
													"key": "commentId",
													"value": "{{commentID}}"
												}
											]
										}
									},
									"response": []
								},
								{
									"name": "Dislike comment",
									"event": [
										{
											"listen": "test",
											"script": {
												"exec": [
													"var jsonRes = pm.response.json();\r",
													"\r",
													"pm.test(\"Status code is 200\", function () {\r",
													"    pm.response.to.have.status(200);\r",
													"});\r",
													"\r",
													"pm.test(\"Validate if comment has the same content\", function () {\r",
													"    pm.expect(jsonRes.content).to.eql(pm.environment.get(\"editCommentText\"));\r",
													"});\r",
													"\r",
													"pm.test(\"Validate if the comment is unliked\", function () {\r",
													"        pm.expect(jsonRes.liked).is.equal(false);\r",
													"});"
												],
												"type": "text/javascript"
											}
										}
									],
									"request": {
										"method": "POST",
										"header": [],
										"url": {
											"raw": "{{BaseUrl}}/api/comment/auth/likesUp?commentId={{commentID}}",
											"host": [
												"{{BaseUrl}}"
											],
											"path": [
												"api",
												"comment",
												"auth",
												"likesUp"
											],
											"query": [
												{
													"key": "commentId",
													"value": "{{commentID}}"
												}
											]
										}
									},
									"response": []
								},
								{
									"name": "Validate unliked comment",
									"event": [
										{
											"listen": "test",
											"script": {
												"exec": [
													"var jsonRes = pm.response.json();\r",
													"\r",
													"pm.test(\"Status code is 200\", function () {\r",
													"    pm.response.to.have.status(200);\r",
													"});\r",
													"\r",
													"pm.test(\"Validate created comment is not null or undefined\", function () {\r",
													"        pm.expect(jsonRes).is.not.oneOf([null, undefined]);\r",
													"});\r",
													"\r",
													"pm.test(\"Validate comment has ID\", function () {\r",
													"     pm.expect(jsonRes.commentId).to.not.null;\r",
													"});\r",
													"\r",
													"pm.test(\"Validate comment has 0 likes\", function () {\r",
													"    pm.expect(jsonRes.liked).to.eql(false);\r",
													"});\r",
													"\r",
													"pm.test(\"Validate comment is not empty\", function () {\r",
													"    pm.expect(jsonRes.content).to.be.not.empty;\r",
													"});"
												],
												"type": "text/javascript"
											}
										}
									],
									"request": {
										"method": "GET",
										"header": [],
										"url": {
											"raw": "{{BaseUrl}}/api/comment/single?commentId={{commentID}}",
											"host": [
												"{{BaseUrl}}"
											],
											"path": [
												"api",
												"comment",
												"single"
											],
											"query": [
												{
													"key": "commentId",
													"value": "{{commentID}}"
												}
											]
										}
									},
									"response": []
								}
							]
						},
						{
							"name": "Delete Comment",
							"item": [
								{
									"name": "Delete comment",
									"event": [
										{
											"listen": "test",
											"script": {
												"exec": [
													"pm.test(\"Status code is 200\", function () {\r",
													"    pm.response.to.have.status(200);\r",
													"});"
												],
												"type": "text/javascript"
											}
										}
									],
									"request": {
										"method": "DELETE",
										"header": [],
										"url": {
											"raw": "{{BaseUrl}}/api/comment/auth/manager?commentId={{commentID}}",
											"host": [
												"{{BaseUrl}}"
											],
											"path": [
												"api",
												"comment",
												"auth",
												"manager"
											],
											"query": [
												{
													"key": "commentId",
													"value": "{{commentID}}"
												}
											]
										}
									},
									"response": []
								},
								{
									"name": "Validate deleted comment",
									"event": [
										{
											"listen": "test",
											"script": {
												"exec": [
													"pm.test(\"Status code is 404\", function () {\r",
													"    pm.response.to.have.status(404);\r",
													"});"
												],
												"type": "text/javascript"
											}
										}
									],
									"request": {
										"method": "GET",
										"header": [],
										"url": {
											"raw": "{{BaseUrl}}/api/comment/single?commentId={{commentID}}",
											"host": [
												"{{BaseUrl}}"
											],
											"path": [
												"api",
												"comment",
												"single"
											],
											"query": [
												{
													"key": "commentId",
													"value": "{{commentID}}"
												}
											]
										}
									},
									"response": []
								}
							]
						},
						{
							"name": "Logout user",
							"event": [
								{
									"listen": "test",
									"script": {
										"exec": [
											"pm.test(\"Status code is 200\", function () {\r",
											"    pm.response.to.have.status(200);\r",
											"});\r",
											"\r",
											"pm.test(\"Validate HTML response values after logout\",function(){\r",
											"const $ = cheerio.load(pm.response.text());\r",
											"link = $('a');\r",
											"pm.expect($(link).attr('href').includes('Sign In')).not.to.be.null;\r",
											"pm.expect($(link).attr('href').includes('Create Account')).not.to.be.null;\r",
											"});"
										],
										"type": "text/javascript"
									}
								}
							],
							"request": {
								"method": "GET",
								"header": [],
								"url": {
									"raw": "{{BaseUrl}}/logout",
									"host": [
										"{{BaseUrl}}"
									],
									"path": [
										"logout"
									]
								}
							},
							"response": []
						}
					]
				},
				{
					"name": "Private Part - Connection functionalities",
					"item": [
						{
							"name": "First user connect to Second user",
							"item": [
								{
									"name": "Login user",
									"event": [
										{
											"listen": "test",
											"script": {
												"exec": [
													"pm.test(\"Status code is 200\", function () {\r",
													"    pm.response.to.have.status(200);\r",
													"});\r",
													"\r",
													"pm.collectionVariables.set(\"login_cookie\", pm.cookies.get('JSESSIONID'));\r",
													"console.log(pm.cookies.get('JSESSIONID'));\r",
													"\r",
													"pm.test(\"Validate HTML response values after login\",function(){\r",
													"const $ = cheerio.load(pm.response.text());\r",
													"link = $('a');\r",
													"pm.expect($(link).attr('href').includes('LOGOUT')).not.to.be.null;\r",
													"});\r",
													"\r",
													"pm.test(\"The username and password are correct\", function () {\r",
													"   pm.expect(pm.response.text()).not.to.include(\"Wrong username or password.\");\r",
													"});"
												],
												"type": "text/javascript"
											}
										}
									],
									"request": {
										"method": "POST",
										"header": [],
										"body": {
											"mode": "formdata",
											"formdata": [
												{
													"key": "username",
													"value": "{{userName}}",
													"type": "text"
												},
												{
													"key": "password",
													"value": "{{userPassword}}",
													"type": "text"
												}
											]
										},
										"url": {
											"raw": "{{BaseUrl}}/authenticate",
											"host": [
												"{{BaseUrl}}"
											],
											"path": [
												"authenticate"
											]
										}
									},
									"response": []
								},
								{
									"name": "Get users",
									"event": [
										{
											"listen": "test",
											"script": {
												"exec": [
													"var jsonRes = pm.response.json();\r",
													"\r",
													"pm.test(\"Status code is 200\", function () {\r",
													"    pm.response.to.have.status(200);\r",
													"});\r",
													"\r",
													"pm.test(\"Validate result is bigger then 0\", function(){\r",
													"    pm.expect(jsonRes[0].userId).to.be.gt(0);\r",
													"});\r",
													"\r",
													"pm.environment.set(\"testIDConnect\",jsonRes[0].userId);\r",
													"\r",
													"pm.environment.set(\"testUserName\", jsonRes[0].username);"
												],
												"type": "text/javascript"
											}
										}
									],
									"request": {
										"method": "POST",
										"header": [],
										"body": {
											"mode": "raw",
											"raw": "{\r\n  \"index\": 0,\r\n  \"next\": true,\r\n  \"searchParam1\":\"\",\r\n  \"searchParam2\":\"\",\r\n  \"size\": 10\r\n}",
											"options": {
												"raw": {
													"language": "json"
												}
											}
										},
										"url": {
											"raw": "{{BaseUrl}}/api/users",
											"host": [
												"{{BaseUrl}}"
											],
											"path": [
												"api",
												"users"
											]
										}
									},
									"response": []
								},
								{
									"name": "Send connect request",
									"event": [
										{
											"listen": "test",
											"script": {
												"exec": [
													"pm.test(\"Status code is 200\", function () {\r",
													"    pm.response.to.have.status(200);\r",
													"});\r",
													"\r",
													"const html = cheerio(responseBody);\r",
													"pm.test(\"Response has succefull message for sending connection- Good job! You have send friend request\", function () {\r",
													"   pm.expect(pm.response.text()).to.include(\"Good job! You have send friend request!\");\r",
													"});\r",
													""
												],
												"type": "text/javascript"
											}
										},
										{
											"listen": "prerequest",
											"script": {
												"exec": [
													""
												],
												"type": "text/javascript"
											}
										}
									],
									"request": {
										"method": "POST",
										"header": [],
										"body": {
											"mode": "raw",
											"raw": "",
											"options": {
												"raw": {
													"language": "json"
												}
											}
										},
										"url": {
											"raw": "{{BaseUrl}}/auth/connection/request?id={{testIDConnect}}&username={{testUserName}}",
											"host": [
												"{{BaseUrl}}"
											],
											"path": [
												"auth",
												"connection",
												"request"
											],
											"query": [
												{
													"key": "id",
													"value": "{{testIDConnect}}"
												},
												{
													"key": "username",
													"value": "{{testUserName}}"
												}
											]
										}
									},
									"response": []
								},
								{
									"name": "Logout user",
									"event": [
										{
											"listen": "test",
											"script": {
												"exec": [
													"pm.test(\"Status code is 200\", function () {\r",
													"    pm.response.to.have.status(200);\r",
													"});\r",
													"\r",
													"pm.test(\"Validate HTML response values after logout\",function(){\r",
													"const $ = cheerio.load(pm.response.text());\r",
													"link = $('a');\r",
													"pm.expect($(link).attr('href').includes('Sign In')).not.to.be.null;\r",
													"pm.expect($(link).attr('href').includes('Create Account')).not.to.be.null;\r",
													"});"
												],
												"type": "text/javascript"
											}
										}
									],
									"request": {
										"method": "GET",
										"header": [],
										"url": {
											"raw": "{{BaseUrl}}/logout",
											"host": [
												"{{BaseUrl}}"
											],
											"path": [
												"logout"
											]
										}
									},
									"response": []
								}
							]
						},
						{
							"name": "Second user connect to First user",
							"item": [
								{
									"name": "Login second user",
									"event": [
										{
											"listen": "test",
											"script": {
												"exec": [
													"pm.test(\"Status code is 200\", function () {\r",
													"    pm.response.to.have.status(200);\r",
													"});\r",
													"\r",
													"pm.collectionVariables.set(\"login_cookie\", pm.cookies.get('JSESSIONID'));\r",
													"console.log(pm.cookies.get('JSESSIONID'));\r",
													"\r",
													"pm.test(\"Validate HTML response values after login\",function(){\r",
													"const $ = cheerio.load(pm.response.text());\r",
													"link = $('a');\r",
													"pm.expect($(link).attr('href').includes('LOGOUT')).not.to.be.null;\r",
													"});\r",
													"\r",
													"pm.test(\"The username and password are correct\", function () {\r",
													"   pm.expect(pm.response.text()).not.to.include(\"Wrong username or password.\");\r",
													"});"
												],
												"type": "text/javascript"
											}
										}
									],
									"request": {
										"method": "POST",
										"header": [],
										"body": {
											"mode": "formdata",
											"formdata": [
												{
													"key": "username",
													"value": "{{secondUserName}}",
													"type": "text"
												},
												{
													"key": "password",
													"value": "{{secondUserPassword}}",
													"type": "text"
												}
											]
										},
										"url": {
											"raw": "{{BaseUrl}}/authenticate",
											"host": [
												"{{BaseUrl}}"
											],
											"path": [
												"authenticate"
											]
										}
									},
									"response": []
								},
								{
									"name": "Get connection request",
									"event": [
										{
											"listen": "test",
											"script": {
												"exec": [
													"var jsonRes = pm.response.json();\r",
													"\r",
													"pm.test(\"Status code is 200\", function () {\r",
													"    pm.response.to.have.status(200);\r",
													"});\r",
													"\r",
													"pm.environment.set(\"connectID\", jsonRes[0].id);"
												],
												"type": "text/javascript"
											}
										}
									],
									"protocolProfileBehavior": {
										"disableBodyPruning": true
									},
									"request": {
										"method": "GET",
										"header": [],
										"body": {
											"mode": "raw",
											"raw": "",
											"options": {
												"raw": {
													"language": "json"
												}
											}
										},
										"url": {
											"raw": "{{BaseUrl}}/api/auth/users/{{secondUserID}}/request/",
											"host": [
												"{{BaseUrl}}"
											],
											"path": [
												"api",
												"auth",
												"users",
												"{{secondUserID}}",
												"request",
												""
											]
										}
									},
									"response": []
								},
								{
									"name": "Accept connection request",
									"event": [
										{
											"listen": "test",
											"script": {
												"exec": [
													"pm.test(\"Status code is 200\", function () {\r",
													"    pm.response.to.have.status(200);\r",
													"});\r",
													"\r",
													"pm.test(\"Validate response has same content\", function () {\r",
													"   pm.expect(pm.response.text()).to.include(\"approved request\");\r",
													"});\r",
													""
												],
												"type": "text/javascript"
											}
										}
									],
									"request": {
										"method": "POST",
										"header": [],
										"body": {
											"mode": "raw",
											"raw": "",
											"options": {
												"raw": {
													"language": "json"
												}
											}
										},
										"url": {
											"raw": "{{BaseUrl}}/api/auth/users/{{secondUserID}}/request/approve?name={{secondUserName}}&requestId={{connectID}}",
											"host": [
												"{{BaseUrl}}"
											],
											"path": [
												"api",
												"auth",
												"users",
												"{{secondUserID}}",
												"request",
												"approve"
											],
											"query": [
												{
													"key": "name",
													"value": "{{secondUserName}}"
												},
												{
													"key": "requestId",
													"value": "{{connectID}}"
												}
											]
										}
									},
									"response": []
								},
								{
									"name": "Logout second user",
									"event": [
										{
											"listen": "test",
											"script": {
												"exec": [
													"pm.test(\"Status code is 200\", function () {\r",
													"    pm.response.to.have.status(200);\r",
													"});\r",
													"\r",
													"pm.test(\"Validate HTML response values after logout\",function(){\r",
													"const $ = cheerio.load(pm.response.text());\r",
													"link = $('a');\r",
													"pm.expect($(link).attr('href').includes('Sign In')).not.to.be.null;\r",
													"pm.expect($(link).attr('href').includes('Create Account')).not.to.be.null;\r",
													"});"
												],
												"type": "text/javascript"
											}
										}
									],
									"request": {
										"method": "GET",
										"header": [],
										"url": {
											"raw": "{{BaseUrl}}/logout",
											"host": [
												"{{BaseUrl}}"
											],
											"path": [
												"logout"
											]
										}
									},
									"response": []
								}
							]
						}
					]
				},
				{
					"name": "Private part - Skills",
					"item": [
						{
							"name": "Create skill",
							"item": [
								{
									"name": "Login user",
									"event": [
										{
											"listen": "test",
											"script": {
												"exec": [
													"pm.test(\"Status code is 200\", function () {\r",
													"    pm.response.to.have.status(200);\r",
													"});\r",
													"\r",
													"pm.collectionVariables.set(\"login_cookie\", pm.cookies.get('JSESSIONID'));\r",
													"console.log(pm.cookies.get('JSESSIONID'));\r",
													"\r",
													"pm.test(\"Validate HTML response values after login\",function(){\r",
													"const $ = cheerio.load(pm.response.text());\r",
													"link = $('a');\r",
													"pm.expect($(link).attr('href').includes('LOGOUT')).not.to.be.null;\r",
													"});\r",
													"\r",
													"pm.test(\"The username and password are correct\", function () {\r",
													"   pm.expect(pm.response.text()).not.to.include(\"Wrong username or password.\");\r",
													"});"
												],
												"type": "text/javascript"
											}
										}
									],
									"request": {
										"method": "POST",
										"header": [],
										"body": {
											"mode": "formdata",
											"formdata": [
												{
													"key": "username",
													"value": "{{userName}}",
													"type": "text"
												},
												{
													"key": "password",
													"value": "{{userPassword}}",
													"type": "text"
												}
											]
										},
										"url": {
											"raw": "{{BaseUrl}}/authenticate",
											"host": [
												"{{BaseUrl}}"
											],
											"path": [
												"authenticate"
											]
										}
									},
									"response": []
								},
								{
									"name": "Get skills",
									"event": [
										{
											"listen": "test",
											"script": {
												"exec": [
													"pm.test(\"Status code is 200\", function () {\r",
													"    pm.response.to.have.status(200);\r",
													"});"
												],
												"type": "text/javascript"
											}
										}
									],
									"request": {
										"method": "GET",
										"header": [],
										"url": {
											"raw": "{{BaseUrl}}/api/skill",
											"host": [
												"{{BaseUrl}}"
											],
											"path": [
												"api",
												"skill"
											]
										}
									},
									"response": []
								},
								{
									"name": "Create skill",
									"event": [
										{
											"listen": "test",
											"script": {
												"exec": [
													"let jsonData = pm.response.json();\r",
													"pm.environment.set(\"SkillID\", jsonData.skillId);\r",
													"\r",
													"pm.test(\"Status code is 200\", function () {\r",
													"    pm.response.to.have.status(200);\r",
													"});\r",
													"\r",
													"pm.test(\"Skill value is correct\", function () {\r",
													"    pm.expect(jsonData.skill).to.eql(pm.environment.get(\"Skill\"));\r",
													"});\r",
													"\r",
													"pm.test(\"Category id is correct\", function () {\r",
													"   pm.expect(pm.response.json().category.id).to.eql(pm.environment.get(\"CategoryId\"));\r",
													"});"
												],
												"type": "text/javascript"
											}
										},
										{
											"listen": "prerequest",
											"script": {
												"exec": [
													"pm.environment.set(\"Skill\", pm.variables.replaceIn('{{$randomLoremSentence}}'));"
												],
												"type": "text/javascript"
											}
										}
									],
									"request": {
										"method": "POST",
										"header": [],
										"body": {
											"mode": "raw",
											"raw": "{\r\n  \"category\": {\r\n    \"id\": {{CategoryId}},\r\n    \"name\": \"\"\r\n  },\r\n  \"skill\": \"{{Skill}}\",\r\n  \"skillId\": 0\r\n}",
											"options": {
												"raw": {
													"language": "json"
												}
											}
										},
										"url": {
											"raw": "{{BaseUrl}}/api/skill/create",
											"host": [
												"{{BaseUrl}}"
											],
											"path": [
												"api",
												"skill",
												"create"
											]
										}
									},
									"response": []
								},
								{
									"name": "Get skill by Id",
									"event": [
										{
											"listen": "test",
											"script": {
												"exec": [
													"var jsonData = pm.response.json();\r",
													"\r",
													"pm.test(\"Status code is 200\", function () {\r",
													"    pm.response.to.have.status(200);\r",
													"});\r",
													"\r",
													"pm.test(\"Skill ID is correct\", function () {\r",
													"    pm.expect(jsonData.skillId).to.eql(pm.environment.get(\"SkillID\"));\r",
													"});\r",
													"\r",
													"pm.test(\"Skill value is correct\", function () {\r",
													"    pm.expect(jsonData.skill).to.eql(pm.environment.get(\"Skill\"));\r",
													"});"
												],
												"type": "text/javascript"
											}
										}
									],
									"request": {
										"method": "GET",
										"header": [],
										"url": {
											"raw": "{{BaseUrl}}/api/skill/getOne?skillId={{SkillID}}",
											"host": [
												"{{BaseUrl}}"
											],
											"path": [
												"api",
												"skill",
												"getOne"
											],
											"query": [
												{
													"key": "skillId",
													"value": "{{SkillID}}"
												}
											]
										}
									},
									"response": []
								}
							]
						},
						{
							"name": "Edit skill",
							"item": [
								{
									"name": "Edit skill",
									"event": [
										{
											"listen": "test",
											"script": {
												"exec": [
													"pm.test(\"Status code is 200\", function () {\r",
													"    pm.response.to.have.status(200);\r",
													"});"
												],
												"type": "text/javascript"
											}
										},
										{
											"listen": "prerequest",
											"script": {
												"exec": [
													"pm.environment.set(\"EditedSkill\", pm.variables.replaceIn('{{$randomLoremSentence}}'));"
												],
												"type": "text/javascript"
											}
										}
									],
									"request": {
										"method": "PUT",
										"header": [],
										"url": {
											"raw": "{{BaseUrl}}/api/skill/edit?skillId={{SkillID}}&skill={{EditedSkill}}",
											"host": [
												"{{BaseUrl}}"
											],
											"path": [
												"api",
												"skill",
												"edit"
											],
											"query": [
												{
													"key": "skillId",
													"value": "{{SkillID}}"
												},
												{
													"key": "skill",
													"value": "{{EditedSkill}}"
												}
											]
										}
									},
									"response": []
								},
								{
									"name": "Get skill by Id",
									"event": [
										{
											"listen": "test",
											"script": {
												"exec": [
													"var jsonData = pm.response.json();\r",
													"\r",
													"pm.test(\"Status code is 200\", function () {\r",
													"    pm.response.to.have.status(200);\r",
													"});\r",
													"\r",
													"pm.test(\"Skill ID is correct\", function () {\r",
													"    pm.expect(jsonData.skillId).to.eql(pm.environment.get(\"SkillID\"));\r",
													"});\r",
													"\r",
													"pm.test(\"Skill value is correct\", function () {\r",
													"    pm.expect(jsonData.skill).to.eql(pm.environment.get(\"EditedSkill\"));\r",
													"});"
												],
												"type": "text/javascript"
											}
										}
									],
									"request": {
										"method": "GET",
										"header": [],
										"url": {
											"raw": "{{BaseUrl}}/api/skill/getOne?skillId={{SkillID}}",
											"host": [
												"{{BaseUrl}}"
											],
											"path": [
												"api",
												"skill",
												"getOne"
											],
											"query": [
												{
													"key": "skillId",
													"value": "{{SkillID}}"
												}
											]
										}
									},
									"response": []
								}
							]
						},
						{
							"name": "Delete skill",
							"item": [
								{
									"name": "Delete skill",
									"event": [
										{
											"listen": "test",
											"script": {
												"exec": [
													"pm.test(\"Status code is 200\", function () {\r",
													"    pm.response.to.have.status(200);\r",
													"});"
												],
												"type": "text/javascript"
											}
										}
									],
									"request": {
										"method": "PUT",
										"header": [],
										"url": {
											"raw": "{{BaseUrl}}/api/skill/delete?skillId={{SkillID}}",
											"host": [
												"{{BaseUrl}}"
											],
											"path": [
												"api",
												"skill",
												"delete"
											],
											"query": [
												{
													"key": "skillId",
													"value": "{{SkillID}}"
												}
											]
										}
									},
									"response": []
								},
								{
									"name": "Get skill by Id",
									"event": [
										{
											"listen": "test",
											"script": {
												"exec": [
													"pm.test(\"Status code is 404\", function () {\r",
													"    pm.response.to.have.status(404);\r",
													"});\r",
													"\r",
													"pm.test(\"Skill is Not found\", function () {\r",
													"    var jsonData = pm.response.json();\r",
													"    pm.expect(jsonData.error).to.eql(\"Not Found\");\r",
													"});\r",
													"\r",
													"pm.test(\"Skill doesn't exists\", function () {\r",
													"    var jsonData = pm.response.json();\r",
													"    pm.expect(jsonData.message).to.eql(\"Skill does't exist\");\r",
													"});"
												],
												"type": "text/javascript"
											}
										}
									],
									"request": {
										"method": "GET",
										"header": [],
										"url": {
											"raw": "{{BaseUrl}}/api/skill/getOne?skillId={{SkillID}}",
											"host": [
												"{{BaseUrl}}"
											],
											"path": [
												"api",
												"skill",
												"getOne"
											],
											"query": [
												{
													"key": "skillId",
													"value": "{{SkillID}}"
												}
											]
										}
									},
									"response": []
								}
							]
						},
						{
							"name": "Logout user",
							"event": [
								{
									"listen": "test",
									"script": {
										"exec": [
											"pm.test(\"Status code is 200\", function () {\r",
											"    pm.response.to.have.status(200);\r",
											"});\r",
											"\r",
											"pm.test(\"Validate HTML response values after logout\",function(){\r",
											"const $ = cheerio.load(pm.response.text());\r",
											"link = $('a');\r",
											"pm.expect($(link).attr('href').includes('Sign In')).not.to.be.null;\r",
											"pm.expect($(link).attr('href').includes('Create Account')).not.to.be.null;\r",
											"});"
										],
										"type": "text/javascript"
									}
								}
							],
							"request": {
								"method": "GET",
								"header": [],
								"url": {
									"raw": "{{BaseUrl}}/logout",
									"host": [
										"{{BaseUrl}}"
									],
									"path": [
										"logout"
									]
								}
							},
							"response": []
						}
					]
				}
			]
		},
		{
			"name": "Public part",
			"item": [
				{
					"name": "About us",
					"event": [
						{
							"listen": "test",
							"script": {
								"exec": [
									"pm.test(\"Status code is 200\", function () {\r",
									"    pm.response.to.have.status(200);\r",
									"});\r",
									"const html = cheerio(responseBody);\r",
									"let textResponce = html.find('h1').text()\r",
									"\r",
									"pm.test(\"Response has succefull title About us\", function () {\r",
									"   pm.expect(textResponce).to.be.eql(\"About us\");\r",
									"});"
								],
								"type": "text/javascript"
							}
						}
					],
					"request": {
						"method": "GET",
						"header": [],
						"url": {
							"raw": "{{BaseUrl}}/about-us",
							"host": [
								"{{BaseUrl}}"
							],
							"path": [
								"about-us"
							]
						}
					},
					"response": []
				},
				{
					"name": "Get all users",
					"event": [
						{
							"listen": "test",
							"script": {
								"exec": [
									"let jsonData = pm.response.json();\r",
									"\r",
									"pm.test(\"Status code is 200\", function () {\r",
									"    pm.response.to.have.status(200);\r",
									"});\r",
									"\r",
									"pm.test(\"All elements have property userID\", () => {\r",
									"  _.each(jsonData, (item) => {\r",
									"      pm.expect(item).to.have.property(\"userId\")})\r",
									"});\r",
									"\r",
									"pm.test(\"All elements have property username\", () => {\r",
									"  _.each(jsonData, (item) => {\r",
									"      pm.expect(item).to.have.property(\"username\")})\r",
									"});\r",
									"\r",
									"pm.test(\"All elements have property expertiseProfile\", () => {\r",
									"  _.each(jsonData, (item) => {\r",
									"      pm.expect(item).to.have.property(\"expertiseProfile\")})\r",
									"});\r",
									"\r",
									"pm.test(\"All elements have property id in ExpertiseProfile\", () => {\r",
									"  _.each(jsonData, (item) => {\r",
									"      pm.expect(item.expertiseProfile).to.have.property(\"id\")})\r",
									"});\r",
									"\r",
									"pm.test(\"All elements have property category in ExpertiseProfile\", () => {\r",
									"  _.each(jsonData, (item) => {\r",
									"      pm.expect(item.expertiseProfile).to.have.property(\"category\")})\r",
									"});\r",
									"\r",
									"pm.test(\"All elements have property enabled\", () => {\r",
									"  _.each(jsonData, (item) => {\r",
									"      pm.expect(item).to.have.property(\"enabled\")})\r",
									"});"
								],
								"type": "text/javascript"
							}
						}
					],
					"request": {
						"method": "POST",
						"header": [],
						"body": {
							"mode": "raw",
							"raw": "{\r\n  \"index\": 0,\r\n  \"next\": true,\r\n  \"searchParam1\":\"\",\r\n  \"searchParam2\":\"\",\r\n  \"size\": 50\r\n}",
							"options": {
								"raw": {
									"language": "json"
								}
							}
						},
						"url": {
							"raw": "{{BaseUrl}}/api/users",
							"host": [
								"{{BaseUrl}}"
							],
							"path": [
								"api",
								"users"
							]
						}
					},
					"response": []
				},
				{
					"name": "Get posts",
					"event": [
						{
							"listen": "test",
							"script": {
								"exec": [
									"let jsonData = pm.response.json();\r",
									"\r",
									"pm.test(\"Status code is 200\", function () {\r",
									"    pm.response.to.have.status(200);\r",
									"});\r",
									"\r",
									"pm.test(\"All elements have property postId\", () => {\r",
									"  _.each(jsonData, (item) => {\r",
									"      pm.expect(item).to.have.property(\"postId\")})\r",
									"});\r",
									"\r",
									"pm.test(\"All elements have property content\", () => {\r",
									"  _.each(jsonData, (item) => {\r",
									"      pm.expect(item).to.have.property(\"content\")})\r",
									"});\r",
									"\r",
									"pm.test(\"All elements have property date\", () => {\r",
									"  _.each(jsonData, (item) => {\r",
									"      pm.expect(item).to.have.property(\"date\")})\r",
									"});\r",
									"\r",
									"pm.test(\"All elements have property comments\", () => {\r",
									"  _.each(jsonData, (item) => {\r",
									"      pm.expect(item).to.have.property(\"comments\")})\r",
									"});\r",
									"\r",
									"pm.test(\"All elements have property category\", () => {\r",
									"  _.each(jsonData, (item) => {\r",
									"      pm.expect(item).to.have.property(\"category\")})\r",
									"});\r",
									"\r",
									"pm.test(\"All elements have property id in category\", () => {\r",
									"  _.each(jsonData, (item) => {\r",
									"      pm.expect(item.category).to.have.property(\"id\")})\r",
									"});"
								],
								"type": "text/javascript"
							}
						}
					],
					"request": {
						"method": "GET",
						"header": [],
						"url": {
							"raw": "{{BaseUrl}}/api/post/",
							"host": [
								"{{BaseUrl}}"
							],
							"path": [
								"api",
								"post",
								""
							]
						}
					},
					"response": []
				},
				{
					"name": "Get comments",
					"event": [
						{
							"listen": "test",
							"script": {
								"exec": [
									"let jsonData = pm.response.json();\r",
									"\r",
									"pm.test(\"Status code is 200\", function () {\r",
									"    pm.response.to.have.status(200);\r",
									"});\r",
									"\r",
									"pm.test(\"All elements have property commentId\", () => {\r",
									"  _.each(jsonData, (item) => {\r",
									"      pm.expect(item).to.have.property(\"commentId\")})\r",
									"});\r",
									"\r",
									"pm.test(\"All elements have property content\", () => {\r",
									"  _.each(jsonData, (item) => {\r",
									"      pm.expect(item).to.have.property(\"content\")})\r",
									"});\r",
									"\r",
									"pm.test(\"All elements have property likes\", () => {\r",
									"  _.each(jsonData, (item) => {\r",
									"      pm.expect(item).to.have.property(\"likes\")})\r",
									"});\r",
									"\r",
									"pm.test(\"All elements have property date\", () => {\r",
									"  _.each(jsonData, (item) => {\r",
									"      pm.expect(item).to.have.property(\"date\")})\r",
									"});\r",
									"\r",
									"pm.test(\"All elements have property liked\", () => {\r",
									"  _.each(jsonData, (item) => {\r",
									"      pm.expect(item).to.have.property(\"liked\")})\r",
									"});"
								],
								"type": "text/javascript"
							}
						}
					],
					"request": {
						"method": "GET",
						"header": [],
						"url": {
							"raw": "{{BaseUrl}}/api/comment",
							"host": [
								"{{BaseUrl}}"
							],
							"path": [
								"api",
								"comment"
							]
						}
					},
					"response": []
				},
				{
					"name": "Get skills",
					"event": [
						{
							"listen": "test",
							"script": {
								"exec": [
									"let jsonData = pm.response.json();\r",
									"\r",
									"pm.test(\"Status code is 200\", function () {\r",
									"    pm.response.to.have.status(200);\r",
									"});\r",
									"\r",
									"pm.test(\"All elements have property skillId\", () => {\r",
									"  _.each(jsonData, (item) => {\r",
									"      pm.expect(item).to.have.property(\"skillId\")})\r",
									"});\r",
									"\r",
									"pm.test(\"All elements have property skill\", () => {\r",
									"  _.each(jsonData, (item) => {\r",
									"      pm.expect(item).to.have.property(\"skill\")})\r",
									"});\r",
									"\r",
									"pm.test(\"All elements have property category\", () => {\r",
									"  _.each(jsonData, (item) => {\r",
									"      pm.expect(item).to.have.property(\"category\")})\r",
									"});\r",
									"\r",
									"pm.test(\"All elements have property id in category\", () => {\r",
									"  _.each(jsonData, (item) => {\r",
									"      pm.expect(item.category).to.have.property(\"id\")})\r",
									"});\r",
									"\r",
									"pm.test(\"All elements have property name in category\", () => {\r",
									"  _.each(jsonData, (item) => {\r",
									"      pm.expect(item.category).to.have.property(\"name\")})\r",
									"});"
								],
								"type": "text/javascript"
							}
						}
					],
					"request": {
						"method": "GET",
						"header": [],
						"url": {
							"raw": "{{BaseUrl}}/api/skill",
							"host": [
								"{{BaseUrl}}"
							],
							"path": [
								"api",
								"skill"
							]
						}
					},
					"response": []
				}
			]
		}
	],
	"event": [
		{
			"listen": "prerequest",
			"script": {
				"type": "text/javascript",
				"exec": [
					""
				]
			}
		},
		{
			"listen": "test",
			"script": {
				"type": "text/javascript",
				"exec": [
					""
				]
			}
		}
	],
	"variable": [
		{
			"key": "login_cookie",
			"value": ""
		}
	]
}